# Time(s) fish0X fish0Y
0.000 0.564 0.010
1.000 0.525 0.024
2.000 0.456 0.103
3.000 0.401 0.151
4.000 0.399 0.145
5.000 0.379 0.179
6.000 0.406 0.170
7.000 0.452 0.142
8.000 0.400 0.094
9.000 0.320 0.050
10.000 0.269 0.024
11.000 0.198 0.103
12.000 0.164 0.164
13.000 0.119 0.195
14.000 0.114 0.254
15.000 0.124 0.324
16.000 0.087 0.365
17.000 0.114 0.414
18.000 0.192 0.415
19.000 0.265 0.377
20.000 0.340 0.358
21.000 0.414 0.383
22.000 0.448 0.473
23.000 0.462 0.529
24.000 0.464 0.602
25.000 0.500 0.641
26.000 0.580 0.605
27.000 0.658 0.572
28.000 0.748 0.548
29.000 0.816 0.480
30.000 0.887 0.418
31.000 0.966 0.365
32.000 1.041 0.414
33.000 1.076 0.498
34.000 1.114 0.586
35.000 1.137 0.677
36.000 1.136 0.765
37.000 1.112 0.840
38.000 1.072 0.897
39.000 1.027 0.961
40.000 0.941 0.986
41.000 0.920 1.036
42.000 0.954 0.973
43.000 0.963 0.928
44.000 0.972 0.936
45.000 1.025 0.856
46.000 1.058 0.742
47.000 1.040 0.650
48.000 0.968 0.616
49.000 0.898 0.660
50.000 0.842 0.709
51.000 0.784 0.769
52.000 0.741 0.846
53.000 0.684 0.914
54.000 0.610 0.983
55.000 0.556 1.070
56.000 0.489 1.133
57.000 0.414 1.178
58.000 0.452 1.181
59.000 0.506 1.185
60.000 0.561 1.159
61.000 0.642 1.164
62.000 0.698 1.177
63.000 0.751 1.195
64.000 0.786 1.187
65.000 0.860 1.173
66.000 0.943 1.180
67.000 1.033 1.192
68.000 1.107 1.179
69.000 1.130 1.150
70.000 1.166 1.176
71.000 1.124 1.171
72.000 1.158 1.111
73.000 1.163 1.039
74.000 1.133 0.989
75.000 1.112 0.953
76.000 1.128 0.896
77.000 1.151 0.842
78.000 1.170 0.781
79.000 1.163 0.720
80.000 1.146 0.643
81.000 1.141 0.565
82.000 1.179 0.508
83.000 1.181 0.435
84.000 1.178 0.385
85.000 1.169 0.306
86.000 1.176 0.228
87.000 1.171 0.110
88.000 1.160 0.036
89.000 1.089 0.030
90.000 1.019 0.039
91.000 1.013 0.101
92.000 0.971 0.154
93.000 0.892 0.112
94.000 0.854 0.044
95.000 0.782 0.039
96.000 0.715 0.048
97.000 0.636 0.030
98.000 0.548 0.032
99.000 0.476 0.046
100.000 0.421 0.063
101.000 0.326 0.052
102.000 0.234 0.044
103.000 0.152 0.029
104.000 0.090 0.047
105.000 0.059 0.087
106.000 0.048 0.163
107.000 0.045 0.246
108.000 0.048 0.317
109.000 0.035 0.403
110.000 0.048 0.493
111.000 0.040 0.579
112.000 0.045 0.678
113.000 0.043 0.778
114.000 0.055 0.871
115.000 0.059 0.974
116.000 0.076 1.061
117.000 0.052 1.144
118.000 0.129 1.159
119.000 0.175 1.162
120.000 0.160 1.162
121.000 0.207 1.152
122.000 0.274 1.151
123.000 0.354 1.156
124.000 0.450 1.140
125.000 0.542 1.160
126.000 0.640 1.148
127.000 0.652 1.176
128.000 0.711 1.178
129.000 0.765 1.172
130.000 0.828 1.141
131.000 0.906 1.106
132.000 0.992 1.095
133.000 1.081 1.103
134.000 1.148 1.109
135.000 1.168 1.059
136.000 1.158 0.998
137.000 1.162 0.898
138.000 1.168 0.801
139.000 1.165 0.719
140.000 1.138 0.629
141.000 1.143 0.525
142.000 1.141 0.412
143.000 1.146 0.310
144.000 1.150 0.211
145.000 1.172 0.163
146.000 1.108 0.118
147.000 1.013 0.089
148.000 0.909 0.086
149.000 0.809 0.076
150.000 0.714 0.094
151.000 0.602 0.120
152.000 0.510 0.150
153.000 0.421 0.163
154.000 0.339 0.156
155.000 0.262 0.156
156.000 0.198 0.129
157.000 0.121 0.115
158.000 0.055 0.102
159.000 0.032 0.176
160.000 0.036 0.244
161.000 0.045 0.311
162.000 0.054 0.397
163.000 0.062 0.480
164.000 0.052 0.559
165.000 0.079 0.642
166.000 0.103 0.726
167.000 0.185 0.735
168.000 0.267 0.747
169.000 0.321 0.729
170.000 0.358 0.669
171.000 0.402 0.616
172.000 0.411 0.546
173.000 0.428 0.471
174.000 0.496 0.398
175.000 0.585 0.331
176.000 0.716 0.264
177.000 0.860 0.200
178.000 0.998 0.130
179.000 1.110 0.068
180.000 1.144 0.014
181.000 1.123 0.081
182.000 1.141 0.140
183.000 1.167 0.201
184.000 1.147 0.271
185.000 1.142 0.345
186.000 1.115 0.397
187.000 1.112 0.467
188.000 1.132 0.513
189.000 1.132 0.567
190.000 1.166 0.627
191.000 1.185 0.652
192.000 1.180 0.692
193.000 1.148 0.755
194.000 1.138 0.815
195.000 1.121 0.879
196.000 1.096 0.947
197.000 1.047 0.998
198.000 1.039 1.062
199.000 1.011 1.119
200.000 1.001 1.169
201.000 0.941 1.178
202.000 0.894 1.173
203.000 0.827 1.136
204.000 0.744 1.150
205.000 0.745 1.198
206.000 0.733 1.198
207.000 0.738 1.169
208.000 0.677 1.163
209.000 0.611 1.191
210.000 0.522 1.179
211.000 0.475 1.175
212.000 0.382 1.159
213.000 0.313 1.169
214.000 0.219 1.158
215.000 0.186 1.179
216.000 0.140 1.148
217.000 0.090 1.080
218.000 0.039 1.022
219.000 0.045 0.976
220.000 0.073 0.903
221.000 0.032 0.825
222.000 0.041 0.759
223.000 0.063 0.699
224.000 0.088 0.659
225.000 0.119 0.582
226.000 0.080 0.513
227.000 0.036 0.459
228.000 0.007 0.441
229.000 0.024 0.377
230.000 0.071 0.336
231.000 0.133 0.308
232.000 0.176 0.265
233.000 0.210 0.294
234.000 0.187 0.337
235.000 0.148 0.308
236.000 0.197 0.237
237.000 0.268 0.194
238.000 0.320 0.211
239.000 0.374 0.206
240.000 0.424 0.134
241.000 0.376 0.116
242.000 0.385 0.051
243.000 0.471 0.039
244.000 0.573 0.055
245.000 0.654 0.101
246.000 0.710 0.133
247.000 0.774 0.160
248.000 0.837 0.176
249.000 0.901 0.172
250.000 0.983 0.181
251.000 1.044 0.170
252.000 0.998 0.183
253.000 1.000 0.256
254.000 0.950 0.326
255.000 0.913 0.383
256.000 0.962 0.472
257.000 1.050 0.513
258.000 1.105 0.442
259.000 1.134 0.343
260.000 1.140 0.248
261.000 1.155 0.152
262.000 1.189 0.094
263.000 1.159 0.040
264.000 1.110 0.042
265.000 1.057 0.086
266.000 1.017 0.144
267.000 1.015 0.182
268.000 1.007 0.183
269.000 1.020 0.174
270.000 1.011 0.169
271.000 1.034 0.222
272.000 1.082 0.295
273.000 1.043 0.361
274.000 1.034 0.441
275.000 1.091 0.507
276.000 1.140 0.588
277.000 1.135 0.684
278.000 1.138 0.792
279.000 1.148 0.887
280.000 1.128 0.985
281.000 1.126 1.078
282.000 1.043 1.083
283.000 0.968 1.074
284.000 0.929 1.022
285.000 0.894 1.011
286.000 0.866 1.017
287.000 0.804 1.055
288.000 0.778 1.132
289.000 0.861 1.144
290.000 0.941 1.143
291.000 0.940 1.075
292.000 0.861 1.037
293.000 0.778 1.013
294.000 0.715 1.032
295.000 0.653 1.035
296.000 0.584 0.984
297.000 0.502 0.926
298.000 0.439 0.913
299.000 0.411 0.835
300.000 0.349 0.747
301.000 0.284 0.684
302.000 0.211 0.619
303.000 0.202 0.561
304.000 0.211 0.569
305.000 0.254 0.575
306.000 0.319 0.600
307.000 0.402 0.552
308.000 0.472 0.516
309.000 0.574 0.539
310.000 0.641 0.550
311.000 0.696 0.599
312.000 0.763 0.611
313.000 0.802 0.517
314.000 0.732 0.429
315.000 0.628 0.468
316.000 0.547 0.530
317.000 0.445 0.537
318.000 0.339 0.575
319.000 0.260 0.634
320.000 0.165 0.650
321.000 0.107 0.589
322.000 0.107 0.496
323.000 0.149 0.418
324.000 0.191 0.438
325.000 0.237 0.393
326.000 0.228 0.326
327.000 0.203 0.261
328.000 0.176 0.239
329.000 0.133 0.282
330.000 0.071 0.265
331.000 0.064 0.181
332.000 0.096 0.077
333.000 0.169 0.027
334.000 0.226 0.059
335.000 0.319 0.040
336.000 0.380 0.051
337.000 0.457 0.086
338.000 0.554 0.065
339.000 0.637 0.029
340.000 0.734 0.030
341.000 0.831 0.029
342.000 0.933 0.044
343.000 1.049 0.038
344.000 1.139 0.034
345.000 1.165 0.127
346.000 1.178 0.205
347.000 1.140 0.217
348.000 1.132 0.273
349.000 1.118 0.293
350.000 1.130 0.305
351.000 1.155 0.377
352.000 1.132 0.456
353.000 1.077 0.520
354.000 1.022 0.514
355.000 0.965 0.560
356.000 0.952 0.647
357.000 0.946 0.655
358.000 0.942 0.686
359.000 0.932 0.661
360.000 0.879 0.705
361.000 0.898 0.790
362.000 0.960 0.882
363.000 1.015 0.967
364.000 1.048 1.053
365.000 1.061 1.144
366.000 0.962 1.166
367.000 0.903 1.134
368.000 0.827 1.164
369.000 0.726 1.145
370.000 0.613 1.120
371.000 0.502 1.130
372.000 0.410 1.155
373.000 0.297 1.149
374.000 0.192 1.152
375.000 0.109 1.083
376.000 0.038 1.026
377.000 0.049 0.930
378.000 0.060 0.864
379.000 0.087 0.781
380.000 0.064 0.695
381.000 0.086 0.606
382.000 0.144 0.606
383.000 0.154 0.657
384.000 0.230 0.607
385.000 0.289 0.531
386.000 0.338 0.481
387.000 0.417 0.518
388.000 0.474 0.551
389.000 0.545 0.494
390.000 0.597 0.411
391.000 0.602 0.322
392.000 0.558 0.225
393.000 0.611 0.149
394.000 0.735 0.117
395.000 0.857 0.104
396.000 0.971 0.118
397.000 1.063 0.110
398.000 1.144 0.150
399.000 1.144 0.244
400.000 1.135 0.349
401.000 1.113 0.434
402.000 1.109 0.513
403.000 1.094 0.596
404.000 1.114 0.692
405.000 1.120 0.783
406.000 1.129 0.887
407.000 1.115 0.978
408.000 1.104 1.060
409.000 1.071 1.136
410.000 1.002 1.170
411.000 0.932 1.171
412.000 0.863 1.176
413.000 0.793 1.183
414.000 0.716 1.183
415.000 0.629 1.184
416.000 0.536 1.179
417.000 0.450 1.172
418.000 0.367 1.171
419.000 0.274 1.174
420.000 0.191 1.149
421.000 0.104 1.149
422.000 0.029 1.143
423.000 0.027 1.068
424.000 0.030 0.996
425.000 0.024 0.928
426.000 0.019 0.856
427.000 0.012 0.803
428.000 0.020 0.729
429.000 0.020 0.667
430.000 0.017 0.589
431.000 0.071 0.554
432.000 0.041 0.486
433.000 0.015 0.423
434.000 0.021 0.339
435.000 0.019 0.255
436.000 0.048 0.209
437.000 0.091 0.136
438.000 0.178 0.080
439.000 0.277 0.053
440.000 0.356 0.033
441.000 0.441 0.050
442.000 0.519 0.050
443.000 0.607 0.066
444.000 0.700 0.041
445.000 0.801 0.019
446.000 0.892 0.016
447.000 0.977 0.055
448.000 1.009 0.102
449.000 1.075 0.079
450.000 1.156 0.039
451.000 1.187 0.081
452.000 1.185 0.126
453.000 1.185 0.163
454.000 1.184 0.211
455.000 1.188 0.244
456.000 1.190 0.283
457.000 1.190 0.235
458.000 1.140 0.186
459.000 1.148 0.113
460.000 1.185 0.046
461.000 1.145 0.010
462.000 1.101 0.018
463.000 1.064 0.029
464.000 1.009 0.079
465.000 1.024 0.147
466.000 1.080 0.192
467.000 1.137 0.217
468.000 1.185 0.265
469.000 1.175 0.335
470.000 1.174 0.407
471.000 1.196 0.488
472.000 1.178 0.564
473.000 1.187 0.650
474.000 1.183 0.729
475.000 1.172 0.815
476.000 1.178 0.918
477.000 1.164 1.000
478.000 1.164 1.067
479.000 1.152 1.165
480.000 1.069 1.183
481.000 1.005 1.179
482.000 0.946 1.180
483.000 0.928 1.196
484.000 0.864 1.188
485.000 0.794 1.176
486.000 0.701 1.176
487.000 0.595 1.152
488.000 0.512 1.175
489.000 0.419 1.162
490.000 0.324 1.160
491.000 0.234 1.156
492.000 0.138 1.163
493.000 0.060 1.149
494.000 0.096 1.106
495.000 0.057 1.049
496.000 0.026 0.998
497.000 0.028 0.927
498.000 0.030 0.860
499.000 0.023 0.788
500.000 0.027 0.704
501.000 0.039 0.610
502.000 0.080 0.549
503.000 0.074 0.474
504.000 0.033 0.406
505.000 0.037 0.317
506.000 0.043 0.227
507.000 0.039 0.151
508.000 0.057 0.072
509.000 0.044 0.034
510.000 0.099 0.030
511.000 0.146 0.039
512.000 0.204 0.055
513.000 0.292 0.048
514.000 0.382 0.054
515.000 0.474 0.034
516.000 0.558 0.047
517.000 0.647 0.031
518.000 0.745 0.039
519.000 0.832 0.047
520.000 0.945 0.043
521.000 1.043 0.056
522.000 1.137 0.053
523.000 1.178 0.102
524.000 1.168 0.194
525.000 1.158 0.285
526.000 1.136 0.353
527.000 1.115 0.432
528.000 1.148 0.523
529.000 1.172 0.624
530.000 1.154 0.720
531.000 1.104 0.756
532.000 1.126 0.835
533.000 1.167 0.924
534.000 1.164 1.043
535.000 1.138 1.132
536.000 1.085 1.176
537.000 1.000 1.169
538.000 0.902 1.184
539.000 0.818 1.159
540.000 0.716 1.167
541.000 0.596 1.156
542.000 0.496 1.131
543.000 0.466 1.074
544.000 0.429 1.024
545.000 0.343 1.016
546.000 0.271 1.065
547.000 0.196 1.119
548.000 0.102 1.125
549.000 0.036 1.077
550.000 0.042 0.999
551.000 0.048 0.908
552.000 0.051 0.831
553.000 0.074 0.751
554.000 0.049 0.657
555.000 0.065 0.562
556.000 0.071 0.468
557.000 0.070 0.383
558.000 0.075 0.288
559.000 0.049 0.190
560.000 0.067 0.096
561.000 0.136 0.048
562.000 0.229 0.050
563.000 0.316 0.027
564.000 0.405 0.050
565.000 0.488 0.040
566.000 0.582 0.055
567.000 0.674 0.071
568.000 0.749 0.062
569.000 0.808 0.125
570.000 0.878 0.161
571.000 0.953 0.176
572.000 1.029 0.104
573.000 1.114 0.060
574.000 1.184 0.063
575.000 1.177 0.131
576.000 1.167 0.190
577.000 1.156 0.272
578.000 1.154 0.354
579.000 1.122 0.429
580.000 1.147 0.523
581.000 1.140 0.589
582.000 1.136 0.613
583.000 1.112 0.674
584.000 1.071 0.766
585.000 1.098 0.846
586.000 1.143 0.931
587.000 1.130 1.026
588.000 1.062 1.079
589.000 0.987 1.136
590.000 0.892 1.145
591.000 0.825 1.127
592.000 0.732 1.119
593.000 0.625 1.141
594.000 0.521 1.145
595.000 0.418 1.137
596.000 0.315 1.154
597.000 0.243 1.123
598.000 0.155 1.129
599.000 0.066 1.097
600.000 0.076 1.024
601.000 0.053 0.947
602.000 0.039 0.861
603.000 0.064 0.787
604.000 0.091 0.730
605.000 0.125 0.669
606.000 0.163 0.596
607.000 0.151 0.538
608.000 0.197 0.457
609.000 0.185 0.396
610.000 0.139 0.324
611.000 0.103 0.245
612.000 0.078 0.165
613.000 0.021 0.149
614.000 0.021 0.093
615.000 0.020 0.039
616.000 0.079 0.027
617.000 0.111 0.065
618.000 0.154 0.065
619.000 0.161 0.025
620.000 0.106 0.049
621.000 0.106 0.112
622.000 0.169 0.143
623.000 0.248 0.143
624.000 0.344 0.129
625.000 0.447 0.087
626.000 0.548 0.077
627.000 0.611 0.043
628.000 0.610 0.021
629.000 0.632 0.022
630.000 0.721 0.043
631.000 0.808 0.047
632.000 0.894 0.029
633.000 0.976 0.049
634.000 1.015 0.098
635.000 1.089 0.072
636.000 1.136 0.031
637.000 1.182 0.066
638.000 1.183 0.115
639.000 1.175 0.148
640.000 1.163 0.193
641.000 1.154 0.259
642.000 1.160 0.328
643.000 1.191 0.328
644.000 1.168 0.297
645.000 1.140 0.371
646.000 1.151 0.472
647.000 1.168 0.571
648.000 1.166 0.672
649.000 1.140 0.756
650.000 1.135 0.850
651.000 1.167 0.949
652.000 1.169 1.059
653.000 1.158 1.145
654.000 1.170 1.187
655.000 1.068 1.181
656.000 0.985 1.173
657.000 0.915 1.156
658.000 0.819 1.134
659.000 0.715 1.146
660.000 0.617 1.155
661.000 0.513 1.157
662.000 0.430 1.144
663.000 0.345 1.078
664.000 0.260 1.068
665.000 0.190 1.111
666.000 0.182 1.134
667.000 0.182 1.103
668.000 0.135 1.048
669.000 0.078 1.076
670.000 0.062 1.140
671.000 0.024 1.140
672.000 0.041 1.094
673.000 0.040 1.055
674.000 0.042 1.008
675.000 0.032 0.967
676.000 0.035 0.919
677.000 0.035 0.852
678.000 0.041 0.786
679.000 0.054 0.704
680.000 0.072 0.624
681.000 0.037 0.546
682.000 0.028 0.458
683.000 0.048 0.363
684.000 0.012 0.296
685.000 0.061 0.265
686.000 0.133 0.216
687.000 0.111 0.136
688.000 0.072 0.071
689.000 0.157 0.039
690.000 0.245 0.037
691.000 0.340 0.044
692.000 0.439 0.035
693.000 0.544 0.043
694.000 0.642 0.033
695.000 0.729 0.052
696.000 0.838 0.044
697.000 0.944 0.028
698.000 1.010 0.054
699.000 1.045 0.095
700.000 1.120 0.051
701.000 1.172 0.018
702.000 1.188 0.075
703.000 1.177 0.147
704.000 1.187 0.172
705.000 1.178 0.238
706.000 1.149 0.327
707.000 1.141 0.429
708.000 1.145 0.525
709.000 1.143 0.632
710.000 1.117 0.738
711.000 1.132 0.850
712.000 1.133 0.956
713.000 1.139 1.057
714.000 1.077 1.124
715.000 0.979 1.139
716.000 0.876 1.142
717.000 0.763 1.144
718.000 0.656 1.155
719.000 0.547 1.175
720.000 0.444 1.165
721.000 0.346 1.138
722.000 0.276 1.088
723.000 0.208 1.030
724.000 0.115 0.997
725.000 0.081 1.051
726.000 0.049 1.120
727.000 0.020 1.070
728.000 0.035 0.985
729.000 0.037 0.895
730.000 0.041 0.804
731.000 0.047 0.703
732.000 0.061 0.613
733.000 0.080 0.533
734.000 0.079 0.451
735.000 0.034 0.384
736.000 0.039 0.296
737.000 0.044 0.207
738.000 0.022 0.140
739.000 0.099 0.084
740.000 0.186 0.100
741.000 0.281 0.101
742.000 0.324 0.172
743.000 0.405 0.201
744.000 0.498 0.176
745.000 0.583 0.151
746.000 0.682 0.150
747.000 0.786 0.174
748.000 0.837 0.241
749.000 0.868 0.307
750.000 0.922 0.401
751.000 0.982 0.459
752.000 1.069 0.482
753.000 1.132 0.549
754.000 1.136 0.650
755.000 1.142 0.726
756.000 1.105 0.813
757.000 1.033 0.863
758.000 0.981 0.872
759.000 0.936 0.939
760.000 0.975 1.021
761.000 1.049 1.078
762.000 1.094 1.152
763.000 1.126 1.169
764.000 1.087 1.129
765.000 1.024 1.119
766.000 0.928 1.118
767.000 0.825 1.099
768.000 0.738 1.063
769.000 0.639 1.041
770.000 0.567 0.981
771.000 0.487 0.917
772.000 0.420 0.860
773.000 0.385 0.809
774.000 0.381 0.803
775.000 0.402 0.798
776.000 0.403 0.794
777.000 0.392 0.810
778.000 0.416 0.808
779.000 0.391 0.798
780.000 0.402 0.802
781.000 0.410 0.801
782.000 0.369 0.786
783.000 0.340 0.762
784.000 0.276 0.769
785.000 0.221 0.758
786.000 0.171 0.793
787.000 0.206 0.836
788.000 0.247 0.804
789.000 0.258 0.725
790.000 0.245 0.658
791.000 0.269 0.599
792.000 0.311 0.548
793.000 0.330 0.484
794.000 0.375 0.427
795.000 0.426 0.375
796.000 0.506 0.357
797.000 0.563 0.376
798.000 0.639 0.370
799.000 0.713 0.316
800.000 0.796 0.291
801.000 0.863 0.225
802.000 0.909 0.141
803.000 0.980 0.093
804.000 1.024 0.106
805.000 1.103 0.097
806.000 1.171 0.096
807.000 1.168 0.172
808.000 1.180 0.207
809.000 1.119 0.215
810.000 1.086 0.236
811.000 1.077 0.249
812.000 1.068 0.236
813.000 1.058 0.243
814.000 1.028 0.244
815.000 1.063 0.253
816.000 1.062 0.217
817.000 1.028 0.208
818.000 0.996 0.247
819.000 0.993 0.297
820.000 1.005 0.347
821.000 1.078 0.388
822.000 1.144 0.342
823.000 1.175 0.283
824.000 1.190 0.322
825.000 1.136 0.372
826.000 1.139 0.455
827.000 1.125 0.540
828.000 1.141 0.604
829.000 1.161 0.687
830.000 1.185 0.709
831.000 1.173 0.758
832.000 1.176 0.811
833.000 1.178 0.860
834.000 1.176 0.922
835.000 1.178 0.974
836.000 1.170 1.041
837.000 1.142 1.098
838.000 1.136 1.167
839.000 1.076 1.172
840.000 1.024 1.174
841.000 0.979 1.170
842.000 0.913 1.156
843.000 0.849 1.167
844.000 0.782 1.174
845.000 0.721 1.159
846.000 0.721 1.112
847.000 0.709 1.038
848.000 0.657 0.982
849.000 0.618 0.932
850.000 0.611 0.860
851.000 0.623 0.780
852.000 0.642 0.715
853.000 0.643 0.643
854.000 0.712 0.593
855.000 0.771 0.546
856.000 0.786 0.467
857.000 0.753 0.415
858.000 0.714 0.401
859.000 0.747 0.406
860.000 0.717 0.397
861.000 0.741 0.403
862.000 0.720 0.409
863.000 0.758 0.452
864.000 0.825 0.450
865.000 0.894 0.388
866.000 0.963 0.337
867.000 1.009 0.255
868.000 1.069 0.188
869.000 1.116 0.124
870.000 1.129 0.056
871.000 1.042 0.057
872.000 0.982 0.047
873.000 0.930 0.090
874.000 0.922 0.162
875.000 0.914 0.229
876.000 0.898 0.312
877.000 0.864 0.368
878.000 0.810 0.413
879.000 0.739 0.400
880.000 0.667 0.376
881.000 0.582 0.419
882.000 0.519 0.486
883.000 0.486 0.586
884.000 0.513 0.674
885.000 0.568 0.738
886.000 0.631 0.805
887.000 0.711 0.851
888.000 0.807 0.874
889.000 0.890 0.905
890.000 0.975 0.917
891.000 1.047 1.013
892.000 1.094 1.094
893.000 1.139 1.140
894.000 1.134 1.174
895.000 1.139 1.173
896.000 1.143 1.157
897.000 1.125 1.162
898.000 1.090 1.171
899.000 1.030 1.162
900.000 0.990 1.174
901.000 0.921 1.171
902.000 0.847 1.159
903.000 0.774 1.169
904.000 0.718 1.186
905.000 0.649 1.174
906.000 0.581 1.162
907.000 0.563 1.108
908.000 0.533 1.042
909.000 0.508 0.967
910.000 0.474 0.889
911.000 0.445 0.816
912.000 0.367 0.792
913.000 0.364 0.774
914.000 0.376 0.804
915.000 0.351 0.804
916.000 0.337 0.755
917.000 0.257 0.734
918.000 0.180 0.707
919.000 0.127 0.671
920.000 0.088 0.568
921.000 0.091 0.502
922.000 0.079 0.413
923.000 0.076 0.326
924.000 0.074 0.243
925.000 0.036 0.181
926.000 0.041 0.106
927.000 0.050 0.053
928.000 0.104 0.029
929.000 0.169 0.038
930.000 0.238 0.041
931.000 0.250 0.028
932.000 0.305 0.030
933.000 0.380 0.047
934.000 0.436 0.034
935.000 0.464 0.064
936.000 0.540 0.037
937.000 0.606 0.025
938.000 0.670 0.019
939.000 0.730 0.014
940.000 0.802 0.037
941.000 0.877 0.033
942.000 0.900 0.025
943.000 0.977 0.038
944.000 1.062 0.050
945.000 1.126 0.042
946.000 1.167 0.068
947.000 1.169 0.138
948.000 1.150 0.215
949.000 1.181 0.275
950.000 1.166 0.339
951.000 1.141 0.413
952.000 1.167 0.495
953.000 1.187 0.560
954.000 1.181 0.644
955.000 1.159 0.715
956.000 1.172 0.791
957.000 1.143 0.859
958.000 1.133 0.915
959.000 1.179 0.931
960.000 1.178 0.975
961.000 1.166 1.048
962.000 1.155 1.133
963.000 1.102 1.178
964.000 1.041 1.150
965.000 0.982 1.148
966.000 0.915 1.116
967.000 0.842 1.124
968.000 0.786 1.150
969.000 0.717 1.185
970.000 0.678 1.148
971.000 0.745 1.135
972.000 0.806 1.080
973.000 0.872 1.057
974.000 0.943 1.096
975.000 1.019 1.101
976.000 1.101 1.125
977.000 1.157 1.125
978.000 1.168 1.062
979.000 1.173 0.996
980.000 1.165 0.942
981.000 1.179 0.884
982.000 1.170 0.814
983.000 1.173 0.749
984.000 1.161 0.680
985.000 1.117 0.659
986.000 1.114 0.620
987.000 1.136 0.585
988.000 1.155 0.532
989.000 1.136 0.502
990.000 1.110 0.475
991.000 1.115 0.406
992.000 1.141 0.342
993.000 1.127 0.280
994.000 1.110 0.221
995.000 1.136 0.161
996.000 1.163 0.102
997.000 1.142 0.052
998.000 1.072 0.051
999.000 1.017 0.087
1000.000 0.967 0.104
1001.000 0.887 0.081
1002.000 0.817 0.055
1003.000 0.767 0.106
1004.000 0.735 0.166
1005.000 0.673 0.199
1006.000 0.616 0.233
1007.000 0.548 0.212
1008.000 0.503 0.185
1009.000 0.459 0.118
1010.000 0.460 0.053
1011.000 0.510 0.028
1012.000 0.571 0.030
1013.000 0.595 0.015
1014.000 0.539 0.034
1015.000 0.464 0.047
1016.000 0.405 0.044
1017.000 0.342 0.042
1018.000 0.288 0.037
1019.000 0.239 0.029
1020.000 0.176 0.039
1021.000 0.110 0.040
1022.000 0.069 0.030
1023.000 0.051 0.055
1024.000 0.041 0.099
1025.000 0.047 0.159
1026.000 0.037 0.216
1027.000 0.037 0.277
1028.000 0.025 0.326
1029.000 0.042 0.378
1030.000 0.069 0.397
1031.000 0.066 0.380
1032.000 0.130 0.330
1033.000 0.171 0.293
1034.000 0.215 0.286
1035.000 0.209 0.274
1036.000 0.201 0.326
1037.000 0.204 0.320
1038.000 0.218 0.321
1039.000 0.213 0.320
1040.000 0.188 0.323
1041.000 0.174 0.293
1042.000 0.199 0.271
1043.000 0.247 0.256
1044.000 0.306 0.208
1045.000 0.360 0.208
1046.000 0.391 0.252
1047.000 0.468 0.288
1048.000 0.544 0.301
1049.000 0.620 0.266
1050.000 0.690 0.290
1051.000 0.735 0.390
1052.000 0.722 0.450
1053.000 0.680 0.522
1054.000 0.639 0.603
1055.000 0.566 0.646
1056.000 0.489 0.589
1057.000 0.441 0.529
1058.000 0.357 0.472
1059.000 0.281 0.437
1060.000 0.195 0.451
1061.000 0.121 0.421
1062.000 0.092 0.360
1063.000 0.056 0.296
1064.000 0.042 0.210
1065.000 0.058 0.124
1066.000 0.034 0.059
1067.000 0.083 0.024
1068.000 0.119 0.022
1069.000 0.174 0.036
1070.000 0.233 0.043
1071.000 0.295 0.023
1072.000 0.374 0.027
1073.000 0.435 0.006
1074.000 0.487 0.021
1075.000 0.527 0.025
1076.000 0.515 0.015
1077.000 0.481 0.046
1078.000 0.529 0.093
1079.000 0.610 0.046
1080.000 0.684 0.017
1081.000 0.767 0.051
1082.000 0.827 0.097
1083.000 0.905 0.116
1084.000 0.974 0.061
1085.000 1.025 0.079
1086.000 1.045 0.116
1087.000 1.039 0.157
1088.000 1.029 0.194
1089.000 0.998 0.215
1090.000 0.971 0.239
1091.000 0.945 0.262
1092.000 0.949 0.316
1093.000 0.942 0.376
1094.000 0.987 0.439
1095.000 1.040 0.491
1096.000 1.125 0.525
1097.000 1.159 0.475
1098.000 1.117 0.468
1099.000 1.078 0.457
1100.000 1.018 0.465
1101.000 1.008 0.532
1102.000 1.050 0.612
1103.000 1.127 0.636
1104.000 1.191 0.625
1105.000 1.178 0.709
1106.000 1.194 0.754
1107.000 1.167 0.805
1108.000 1.132 0.880
1109.000 1.119 0.935
1110.000 1.069 0.986
1111.000 1.046 1.064
1112.000 1.067 1.122
1113.000 1.147 1.144
1114.000 1.137 1.176
1115.000 1.053 1.169
1116.000 1.032 1.124
1117.000 1.001 1.125
1118.000 1.031 1.158
1119.000 1.008 1.190
1120.000 0.952 1.179
1121.000 0.892 1.159
1122.000 0.840 1.156
1123.000 0.788 1.138
1124.000 0.732 1.136
1125.000 0.728 1.096
1126.000 0.749 1.051
1127.000 0.761 0.987
1128.000 0.749 0.937
1129.000 0.750 0.870
1130.000 0.691 0.832
1131.000 0.608 0.862
1132.000 0.541 0.923
1133.000 0.459 0.936
1134.000 0.388 0.834
1135.000 0.337 0.787
1136.000 0.256 0.748
1137.000 0.209 0.651
1138.000 0.174 0.566
1139.000 0.140 0.474
1140.000 0.101 0.388
1141.000 0.054 0.311
1142.000 0.059 0.219
1143.000 0.065 0.126
1144.000 0.061 0.063
1145.000 0.062 0.035
1146.000 0.130 0.038
1147.000 0.192 0.054
1148.000 0.176 0.105
1149.000 0.091 0.107
1150.000 0.057 0.065
1151.000 0.032 0.070
1152.000 0.019 0.134
1153.000 0.011 0.183
1154.000 0.018 0.276
1155.000 0.025 0.365
1156.000 0.041 0.448
1157.000 0.050 0.504
1158.000 0.089 0.552
1159.000 0.195 0.553
1160.000 0.298 0.548
1161.000 0.391 0.537
1162.000 0.483 0.529
1163.000 0.573 0.528
1164.000 0.648 0.564
1165.000 0.707 0.633
1166.000 0.668 0.715
1167.000 0.641 0.799
1168.000 0.703 0.879
1169.000 0.721 0.897
1170.000 0.827 0.921
1171.000 0.929 0.948
1172.000 1.028 1.006
1173.000 1.103 1.072
1174.000 1.176 1.079
1175.000 1.163 0.988
1176.000 1.159 0.875
1177.000 1.153 0.782
1178.000 1.155 0.713
1179.000 1.179 0.684
1180.000 1.167 0.602
1181.000 1.163 0.513
1182.000 1.177 0.429
1183.000 1.189 0.355
1184.000 1.168 0.279
1185.000 1.147 0.202
1186.000 1.148 0.113
1187.000 1.065 0.073
1188.000 0.994 0.080
1189.000 0.944 0.093
1190.000 0.870 0.089
1191.000 0.857 0.048
1192.000 0.920 0.031
1193.000 0.982 0.040
1194.000 1.064 0.050
1195.000 1.135 0.059
1196.000 1.173 0.114
1197.000 1.177 0.166
1198.000 1.195 0.213
1199.000 1.199 0.266
1200.000 1.157 0.337
1201.000 1.146 0.411
1202.000 1.130 0.469
1203.000 1.145 0.533
1204.000 1.162 0.601
1205.000 1.128 0.651
1206.000 1.117 0.723
1207.000 1.155 0.783
1208.000 1.160 0.866
1209.000 1.140 0.952
1210.000 1.159 1.032
1211.000 1.158 1.086
1212.000 1.100 1.145
1213.000 1.030 1.153
1214.000 0.958 1.135
1215.000 0.883 1.127
1216.000 0.832 1.166
1217.000 0.821 1.189
1218.000 0.757 1.166
1219.000 0.721 1.122
1220.000 0.689 1.056
1221.000 0.608 1.062
1222.000 0.563 1.115
1223.000 0.527 1.147
1224.000 0.476 1.118
1225.000 0.436 1.073
1226.000 0.374 1.075
1227.000 0.330 1.071
1228.000 0.273 1.049
1229.000 0.221 1.088
1230.000 0.159 1.141
1231.000 0.074 1.144
1232.000 0.033 1.077
1233.000 0.054 1.049
1234.000 0.080 1.012
1235.000 0.104 0.972
1236.000 0.102 0.919
1237.000 0.117 0.874
1238.000 0.153 0.825
1239.000 0.122 0.789
1240.000 0.116 0.734
1241.000 0.091 0.718
1242.000 0.120 0.690
1243.000 0.124 0.637
1244.000 0.090 0.581
1245.000 0.046 0.543
1246.000 0.039 0.483
1247.000 0.083 0.410
1248.000 0.141 0.367
1249.000 0.212 0.335
1250.000 0.284 0.294
1251.000 0.355 0.251
1252.000 0.443 0.250
1253.000 0.510 0.249
1254.000 0.596 0.248
1255.000 0.650 0.278
1256.000 0.726 0.305
1257.000 0.803 0.266
1258.000 0.862 0.250
1259.000 0.936 0.207
1260.000 1.007 0.145
1261.000 1.077 0.079
1262.000 1.153 0.071
1263.000 1.169 0.137
1264.000 1.145 0.196
1265.000 1.115 0.277
1266.000 1.124 0.362
1267.000 1.140 0.441
1268.000 1.157 0.521
1269.000 1.152 0.612
1270.000 1.140 0.708
1271.000 1.161 0.789
1272.000 1.142 0.877
1273.000 1.089 0.925
1274.000 1.021 0.970
1275.000 0.954 1.016
1276.000 0.895 0.988
1277.000 0.865 0.930
1278.000 0.831 0.921
1279.000 0.832 0.948
1280.000 0.894 0.966
1281.000 0.901 0.893
1282.000 0.865 0.864
1283.000 0.831 0.827
1284.000 0.830 0.777
1285.000 0.813 0.709
1286.000 0.776 0.718
1287.000 0.731 0.670
1288.000 0.716 0.691
1289.000 0.760 0.814
1290.000 0.837 0.874
1291.000 0.912 0.892
1292.000 0.985 0.935
1293.000 1.042 0.991
1294.000 1.098 1.049
1295.000 1.159 1.020
1296.000 1.155 0.936
1297.000 1.139 0.852
1298.000 1.128 0.770
1299.000 1.154 0.718
1300.000 1.178 0.679
1301.000 1.163 0.620
1302.000 1.159 0.549
1303.000 1.148 0.486
1304.000 1.160 0.413
1305.000 1.184 0.380
1306.000 1.166 0.331
1307.000 1.138 0.279
1308.000 1.116 0.217
1309.000 1.122 0.158
1310.000 1.076 0.100
1311.000 1.018 0.114
1312.000 0.999 0.164
1313.000 0.942 0.193
1314.000 0.872 0.165
1315.000 0.804 0.149
1316.000 0.742 0.138
1317.000 0.669 0.125
1318.000 0.610 0.165
1319.000 0.594 0.236
1320.000 0.577 0.279
1321.000 0.557 0.336
1322.000 0.525 0.387
1323.000 0.474 0.442
1324.000 0.446 0.496
1325.000 0.441 0.580
1326.000 0.402 0.650
1327.000 0.360 0.734
1328.000 0.344 0.804
1329.000 0.281 0.863
1330.000 0.209 0.851
1331.000 0.163 0.789
1332.000 0.139 0.710
1333.000 0.120 0.629
1334.000 0.154 0.560
1335.000 0.192 0.485
1336.000 0.191 0.417
1337.000 0.134 0.348
1338.000 0.083 0.298
1339.000 0.054 0.249
1340.000 0.080 0.175
1341.000 0.125 0.127
1342.000 0.204 0.108
1343.000 0.286 0.101
1344.000 0.347 0.046
1345.000 0.434 0.037
1346.000 0.519 0.063
1347.000 0.609 0.050
1348.000 0.692 0.040
1349.000 0.771 0.023
1350.000 0.835 0.042
1351.000 0.927 0.056
1352.000 0.997 0.085
1353.000 1.075 0.100
1354.000 1.147 0.118
1355.000 1.171 0.186
1356.000 1.154 0.245
1357.000 1.153 0.321
1358.000 1.154 0.411
1359.000 1.158 0.504
1360.000 1.116 0.540
1361.000 1.108 0.621
1362.000 1.154 0.690
1363.000 1.160 0.784
1364.000 1.179 0.857
1365.000 1.147 0.901
1366.000 1.150 0.915
1367.000 1.142 0.919
1368.000 1.147 0.901
1369.000 1.167 0.872
1370.000 1.134 0.850
1371.000 1.084 0.857
1372.000 1.021 0.856
1373.000 0.958 0.858
1374.000 0.906 0.843
1375.000 0.852 0.853
1376.000 0.789 0.868
1377.000 0.721 0.903
1378.000 0.670 0.954
1379.000 0.592 1.009
1380.000 0.525 1.065
1381.000 0.444 1.102
1382.000 0.374 1.127
1383.000 0.318 1.098
1384.000 0.311 1.055
1385.000 0.340 1.026
1386.000 0.335 1.026
1387.000 0.342 1.052
1388.000 0.286 1.080
1389.000 0.204 1.107
1390.000 0.130 1.133
1391.000 0.068 1.103
1392.000 0.046 1.022
1393.000 0.053 0.938
1394.000 0.041 0.885
1395.000 0.058 0.832
1396.000 0.098 0.801
1397.000 0.134 0.760
1398.000 0.152 0.715
1399.000 0.183 0.666
1400.000 0.186 0.603
1401.000 0.168 0.525
1402.000 0.182 0.464
1403.000 0.250 0.402
1404.000 0.305 0.395
1405.000 0.352 0.422
1406.000 0.425 0.430
1407.000 0.486 0.464
1408.000 0.578 0.497
1409.000 0.651 0.527
1410.000 0.726 0.588
1411.000 0.768 0.647
1412.000 0.785 0.693
1413.000 0.842 0.741
1414.000 0.926 0.766
1415.000 1.012 0.755
1416.000 1.068 0.774
1417.000 1.112 0.849
1418.000 1.164 0.884
1419.000 1.179 0.935
1420.000 1.172 1.001
1421.000 1.163 1.060
1422.000 1.150 1.134
1423.000 1.118 1.180
1424.000 1.072 1.176
1425.000 1.016 1.161
1426.000 0.943 1.161
1427.000 0.880 1.172
1428.000 0.834 1.196
1429.000 0.762 1.180
1430.000 0.690 1.173
1431.000 0.655 1.160
1432.000 0.635 1.129
1433.000 0.613 1.101
1434.000 0.600 1.049
1435.000 0.543 1.025
1436.000 0.478 1.051
1437.000 0.405 1.104
1438.000 0.331 1.151
1439.000 0.237 1.167
1440.000 0.172 1.147
1441.000 0.160 1.119
1442.000 0.114 1.071
1443.000 0.047 1.027
1444.000 0.025 0.952
1445.000 0.034 0.874
1446.000 0.030 0.801
1447.000 0.028 0.726
1448.000 0.012 0.659
1449.000 0.010 0.593
1450.000 0.036 0.531
1451.000 0.014 0.462
1452.000 0.042 0.407
1453.000 0.076 0.354
1454.000 0.068 0.256
1455.000 0.024 0.181
1456.000 0.050 0.087
1457.000 0.127 0.049
1458.000 0.186 0.061
1459.000 0.269 0.045
1460.000 0.358 0.015
1461.000 0.427 0.041
1462.000 0.519 0.054
1463.000 0.627 0.046
1464.000 0.724 0.039
1465.000 0.789 0.060
1466.000 0.869 0.061
1467.000 0.967 0.047
1468.000 1.036 0.059
1469.000 1.083 0.100
1470.000 1.106 0.167
1471.000 1.119 0.228
1472.000 1.144 0.302
1473.000 1.150 0.395
1474.000 1.177 0.499
1475.000 1.182 0.597
1476.000 1.169 0.684
1477.000 1.189 0.730
1478.000 1.178 0.822
1479.000 1.166 0.911
1480.000 1.114 0.952
1481.000 1.043 0.961
1482.000 0.984 1.020
1483.000 0.978 1.098
1484.000 1.061 1.131
1485.000 1.133 1.152
1486.000 1.169 1.161
1487.000 1.173 1.115
1488.000 1.152 1.091
1489.000 1.165 1.058
1490.000 1.176 1.045
1491.000 1.152 1.063
1492.000 1.134 1.116
1493.000 1.133 1.171
1494.000 1.079 1.178
1495.000 1.030 1.165
1496.000 0.963 1.166
1497.000 0.914 1.155
1498.000 0.875 1.130
1499.000 0.811 1.119
1500.000 0.723 1.146
1501.000 0.644 1.182
1502.000 0.565 1.172
1503.000 0.470 1.165
1504.000 0.381 1.156
1505.000 0.282 1.154
1506.000 0.188 1.151
1507.000 0.100 1.133
1508.000 0.035 1.097
1509.000 0.033 1.014
1510.000 0.033 0.933
1511.000 0.031 0.852
1512.000 0.035 0.770
1513.000 0.027 0.702
1514.000 0.058 0.665
1515.000 0.055 0.587
1516.000 0.014 0.517
1517.000 0.024 0.433
1518.000 0.031 0.360
1519.000 0.032 0.272
1520.000 0.045 0.187
1521.000 0.078 0.115
1522.000 0.147 0.073
1523.000 0.236 0.065
1524.000 0.279 0.097
1525.000 0.341 0.117
1526.000 0.418 0.068
1527.000 0.499 0.033
1528.000 0.599 0.036
1529.000 0.696 0.036
1530.000 0.802 0.045
1531.000 0.906 0.053
1532.000 1.009 0.055
1533.000 1.103 0.039
1534.000 1.172 0.084
1535.000 1.169 0.185
1536.000 1.174 0.265
1537.000 1.166 0.351
1538.000 1.156 0.438
1539.000 1.166 0.535
1540.000 1.153 0.619
1541.000 1.160 0.711
1542.000 1.170 0.809
1543.000 1.151 0.898
1544.000 1.163 0.981
1545.000 1.148 1.072
1546.000 1.103 1.148
1547.000 1.004 1.179
1548.000 0.929 1.187
1549.000 0.871 1.196
1550.000 0.802 1.181
1551.000 0.732 1.167
1552.000 0.659 1.178
1553.000 0.579 1.177
1554.000 0.493 1.189
1555.000 0.398 1.174
1556.000 0.322 1.152
1557.000 0.233 1.137
1558.000 0.163 1.136
1559.000 0.085 1.120
1560.000 0.053 1.050
1561.000 0.053 0.969
1562.000 0.060 0.901
1563.000 0.058 0.830
1564.000 0.058 0.828
1565.000 0.048 0.830
1566.000 0.036 0.837
1567.000 0.049 0.813
1568.000 0.065 0.772
1569.000 0.064 0.726
1570.000 0.093 0.655
1571.000 0.080 0.587
1572.000 0.021 0.535
1573.000 0.017 0.458
1574.000 0.031 0.386
1575.000 0.064 0.341
1576.000 0.131 0.298
1577.000 0.194 0.266
1578.000 0.238 0.233
1579.000 0.300 0.208
1580.000 0.321 0.196
1581.000 0.343 0.133
1582.000 0.340 0.063
1583.000 0.403 0.024
1584.000 0.479 0.026
1585.000 0.549 0.041
1586.000 0.631 0.031
1587.000 0.690 0.031
1588.000 0.758 0.022
1589.000 0.838 0.034
1590.000 0.898 0.044
1591.000 0.960 0.053
1592.000 1.018 0.054
1593.000 1.079 0.035
1594.000 1.116 0.027
1595.000 1.148 0.041
1596.000 1.176 0.060
1597.000 1.182 0.039
1598.000 1.152 0.042
1599.000 1.138 0.047
1600.000 1.169 0.040
1601.000 1.178 0.065
1602.000 1.175 0.080
1603.000 1.180 0.097
1604.000 1.162 0.101
1605.000 1.173 0.061
1606.000 1.156 0.030
1607.000 1.132 0.042
1608.000 1.142 0.066
1609.000 1.177 0.063
1610.000 1.165 0.037
1611.000 1.181 0.050
1612.000 1.182 0.077
1613.000 1.182 0.113
1614.000 1.184 0.142
1615.000 1.176 0.188
1616.000 1.179 0.243
1617.000 1.180 0.295
1618.000 1.178 0.345
1619.000 1.189 0.322
1620.000 1.170 0.277
1621.000 1.142 0.284
1622.000 1.126 0.332
1623.000 1.175 0.399
1624.000 1.189 0.461
1625.000 1.179 0.531
1626.000 1.181 0.607
1627.000 1.192 0.674
1628.000 1.185 0.728
1629.000 1.168 0.799
1630.000 1.171 0.872
1631.000 1.179 0.933
1632.000 1.185 0.941
1633.000 1.184 0.893
1634.000 1.124 0.866
1635.000 1.066 0.926
1636.000 1.066 0.999
1637.000 1.065 1.062
1638.000 1.124 1.110
1639.000 1.103 1.176
1640.000 1.054 1.188
1641.000 1.003 1.168
1642.000 0.995 1.161
1643.000 0.992 1.150
1644.000 1.008 1.152
1645.000 0.967 1.165
1646.000 0.928 1.145
1647.000 0.890 1.127
1648.000 0.841 1.128
1649.000 0.777 1.151
1650.000 0.694 1.173
1651.000 0.607 1.170
1652.000 0.518 1.154
1653.000 0.437 1.159
1654.000 0.356 1.175
1655.000 0.275 1.158
1656.000 0.179 1.167
1657.000 0.094 1.161
1658.000 0.049 1.089
1659.000 0.038 0.992
1660.000 0.027 0.895
1661.000 0.021 0.797
1662.000 0.022 0.709
1663.000 0.017 0.646
1664.000 0.021 0.584
1665.000 0.036 0.500
1666.000 0.045 0.407
1667.000 0.050 0.350
1668.000 0.031 0.271
1669.000 0.031 0.173
1670.000 0.070 0.090
1671.000 0.165 0.056
1672.000 0.230 0.074
1673.000 0.319 0.065
1674.000 0.408 0.079
1675.000 0.513 0.056
1676.000 0.579 0.028
1677.000 0.680 0.050
1678.000 0.771 0.071
1679.000 0.838 0.098
1680.000 0.825 0.178
1681.000 0.796 0.248
1682.000 0.824 0.321
1683.000 0.902 0.357
1684.000 0.984 0.341
1685.000 1.059 0.243
1686.000 1.127 0.133
1687.000 1.179 0.080
1688.000 1.150 0.020
1689.000 1.092 0.051
1690.000 1.079 0.140
1691.000 1.066 0.208
1692.000 1.036 0.276
1693.000 1.063 0.361
1694.000 1.082 0.455
1695.000 1.120 0.548
1696.000 1.146 0.647
1697.000 1.173 0.710
1698.000 1.179 0.800
1699.000 1.150 0.894
1700.000 1.141 0.990
1701.000 1.095 1.072
1702.000 1.024 1.141
1703.000 0.930 1.141
1704.000 0.844 1.148
1705.000 0.769 1.124
1706.000 0.696 1.125
1707.000 0.623 1.122
1708.000 0.523 1.115
1709.000 0.427 1.130
1710.000 0.339 1.136
1711.000 0.258 1.177
1712.000 0.177 1.149
1713.000 0.128 1.073
1714.000 0.107 0.986
1715.000 0.082 0.895
1716.000 0.063 0.795
1717.000 0.086 0.735
1718.000 0.125 0.666
1719.000 0.139 0.605
1720.000 0.155 0.598
1721.000 0.151 0.584
1722.000 0.148 0.579
1723.000 0.143 0.558
1724.000 0.120 0.556
1725.000 0.137 0.552
1726.000 0.108 0.546
1727.000 0.121 0.519
1728.000 0.163 0.533
1729.000 0.180 0.553
1730.000 0.212 0.568
1731.000 0.259 0.520
1732.000 0.286 0.466
1733.000 0.310 0.475
1734.000 0.297 0.471
1735.000 0.339 0.456
1736.000 0.453 0.491
1737.000 0.481 0.497
1738.000 0.533 0.453
1739.000 0.593 0.425
1740.000 0.666 0.392
1741.000 0.741 0.399
1742.000 0.832 0.387
1743.000 0.876 0.356
1744.000 0.935 0.285
1745.000 0.947 0.224
1746.000 0.995 0.178
1747.000 1.065 0.128
1748.000 1.113 0.084
1749.000 1.179 0.085
1750.000 1.181 0.171
1751.000 1.176 0.238
1752.000 1.165 0.306
1753.000 1.138 0.370
1754.000 1.127 0.450
1755.000 1.106 0.518
1756.000 1.093 0.596
1757.000 1.121 0.668
1758.000 1.164 0.731
1759.000 1.158 0.826
1760.000 1.143 0.917
1761.000 1.142 1.008
1762.000 1.143 1.076
1763.000 1.174 1.083
1764.000 1.165 1.125
1765.000 1.152 1.149
1766.000 1.143 1.162
1767.000 1.129 1.172
1768.000 1.115 1.166
1769.000 1.133 1.157
1770.000 1.140 1.156
1771.000 1.158 1.167
1772.000 1.136 1.176
1773.000 1.128 1.174
1774.000 1.136 1.162
1775.000 1.149 1.175
1776.000 1.132 1.174
1777.000 1.121 1.170
1778.000 1.117 1.168
1779.000 1.115 1.167
1780.000 1.114 1.167
1781.000 1.113 1.167
1782.000 1.115 1.166
1783.000 1.145 1.169
1784.000 1.151 1.142
1785.000 1.135 1.132
1786.000 1.117 1.142
1787.000 1.114 1.172
1788.000 1.080 1.180
1789.000 1.056 1.175
1790.000 1.038 1.168
1791.000 1.081 1.173
1792.000 1.125 1.162
1793.000 1.160 1.138
1794.000 1.158 1.102
1795.000 1.157 1.088
1796.000 1.156 1.068
1797.000 1.166 1.043
1798.000 1.169 1.005
1799.000 1.150 0.984
1800.000 1.117 1.018
1801.000 1.133 1.060
1802.000 1.148 1.107
1803.000 1.146 1.147
1804.000 1.132 1.171
1805.000 1.104 1.179
1806.000 1.079 1.174
1807.000 1.067 1.172
1808.000 1.068 1.179
1809.000 1.102 1.172
1810.000 1.119 1.167
1811.000 1.136 1.152
1812.000 1.164 1.143
1813.000 1.165 1.118
1814.000 1.162 1.104
1815.000 1.163 1.090
1816.000 1.170 1.067
1817.000 1.176 1.037
1818.000 1.158 1.011
1819.000 1.167 0.976
1820.000 1.174 0.940
1821.000 1.151 0.922
1822.000 1.130 0.967
1823.000 1.137 1.038
1824.000 1.166 1.067
1825.000 1.162 1.103
1826.000 1.158 1.141
1827.000 1.127 1.176
1828.000 1.094 1.175
1829.000 1.077 1.174
1830.000 1.044 1.177
1831.000 1.005 1.167
1832.000 0.951 1.173
1833.000 0.904 1.167
1834.000 0.841 1.171
1835.000 0.784 1.179
1836.000 0.712 1.163
1837.000 0.639 1.159
1838.000 0.561 1.148
1839.000 0.477 1.144
1840.000 0.405 1.178
1841.000 0.330 1.170
1842.000 0.253 1.183
1843.000 0.170 1.162
1844.000 0.112 1.115
1845.000 0.091 1.043
1846.000 0.079 0.974
1847.000 0.091 0.927
1848.000 0.085 0.854
1849.000 0.063 0.783
1850.000 0.090 0.712
1851.000 0.082 0.659
1852.000 0.092 0.711
1853.000 0.119 0.801
1854.000 0.114 0.898
1855.000 0.097 0.989
1856.000 0.086 1.077
1857.000 0.094 1.140
1858.000 0.166 1.154
1859.000 0.240 1.153
1860.000 0.314 1.156
1861.000 0.371 1.159
1862.000 0.430 1.177
1863.000 0.479 1.173
1864.000 0.531 1.172
1865.000 0.583 1.170
1866.000 0.636 1.183
1867.000 0.684 1.178
1868.000 0.746 1.174
1869.000 0.797 1.173
1870.000 0.845 1.170
1871.000 0.907 1.162
1872.000 0.973 1.161
1873.000 1.031 1.168
1874.000 1.080 1.153
1875.000 1.110 1.114
1876.000 1.118 1.066
1877.000 1.067 1.044
1878.000 1.018 1.044
1879.000 0.956 1.062
1880.000 0.893 1.046
1881.000 0.874 1.043
1882.000 0.878 1.077
1883.000 0.932 1.108
1884.000 1.006 1.096
1885.000 1.085 1.106
1886.000 1.138 1.145
1887.000 1.116 1.181
1888.000 1.098 1.180
1889.000 1.087 1.177
1890.000 1.099 1.180
1891.000 1.142 1.167
1892.000 1.158 1.155
1893.000 1.163 1.146
1894.000 1.166 1.127
1895.000 1.169 1.112
1896.000 1.172 1.085
1897.000 1.176 1.057
1898.000 1.181 1.033
1899.000 1.172 1.000
1900.000 1.155 1.034
1901.000 1.156 1.078
1902.000 1.153 1.118
1903.000 1.144 1.159
1904.000 1.115 1.176
1905.000 1.093 1.171
1906.000 1.079 1.170
1907.000 1.055 1.175
1908.000 1.019 1.182
1909.000 0.962 1.183
1910.000 0.923 1.191
1911.000 0.883 1.198
1912.000 0.915 1.169
1913.000 0.991 1.174
1914.000 1.071 1.188
1915.000 1.129 1.182
1916.000 1.169 1.185
1917.000 1.174 1.136
1918.000 1.173 1.109
1919.000 1.150 1.079
1920.000 1.140 1.045
1921.000 1.101 1.040
1922.000 1.047 1.071
1923.000 1.013 1.058
1924.000 0.969 1.055
1925.000 0.916 1.073
1926.000 0.883 1.114
1927.000 0.827 1.148
1928.000 0.758 1.145
1929.000 0.692 1.132
1930.000 0.611 1.146
1931.000 0.537 1.141
1932.000 0.452 1.142
1933.000 0.391 1.144
1934.000 0.350 1.132
1935.000 0.305 1.120
1936.000 0.257 1.118
1937.000 0.205 1.088
1938.000 0.211 1.052
1939.000 0.182 1.002
1940.000 0.145 0.958
1941.000 0.101 0.881
1942.000 0.052 0.822
1943.000 0.027 0.754
1944.000 0.058 0.701
1945.000 0.107 0.681
1946.000 0.127 0.609
1947.000 0.101 0.534
1948.000 0.069 0.459
1949.000 0.056 0.372
1950.000 0.063 0.283
1951.000 0.091 0.199
1952.000 0.103 0.114
1953.000 0.160 0.047
1954.000 0.228 0.054
1955.000 0.295 0.060
1956.000 0.352 0.024
1957.000 0.428 0.032
1958.000 0.491 0.018
1959.000 0.560 0.058
1960.000 0.630 0.105
1961.000 0.667 0.126
1962.000 0.660 0.100
1963.000 0.692 0.068
1964.000 0.656 0.089
1965.000 0.684 0.147
1966.000 0.733 0.167
1967.000 0.789 0.148
1968.000 0.796 0.100
1969.000 0.860 0.053
1970.000 0.947 0.043
1971.000 1.016 0.047
1972.000 1.059 0.122
1973.000 1.066 0.222
1974.000 1.077 0.314
1975.000 1.118 0.373
1976.000 1.110 0.468
1977.000 1.085 0.541
1978.000 1.017 0.573
1979.000 0.949 0.588
1980.000 0.901 0.639
1981.000 0.861 0.717
1982.000 0.778 0.764
1983.000 0.695 0.756
1984.000 0.628 0.688
1985.000 0.567 0.613
1986.000 0.498 0.543
1987.000 0.408 0.523
1988.000 0.326 0.519
1989.000 0.250 0.575
1990.000 0.211 0.620
1991.000 0.156 0.688
1992.000 0.089 0.741
1993.000 0.076 0.841
1994.000 0.087 0.938
1995.000 0.096 1.029
1996.000 0.108 1.122
1997.000 0.198 1.135
1998.000 0.290 1.146
1999.000 0.379 1.156
2000.000 0.446 1.134
2001.000 0.499 1.116
2002.000 0.562 1.142
2003.000 0.647 1.144
2004.000 0.684 1.101
2005.000 0.754 1.101
2006.000 0.838 1.090
2007.000 0.881 1.039
2008.000 0.957 1.068
2009.000 1.031 1.118
2010.000 1.105 1.059
2011.000 1.126 0.981
2012.000 1.133 0.918
2013.000 1.140 0.846
2014.000 1.158 0.757
2015.000 1.177 0.682
2016.000 1.171 0.599
2017.000 1.170 0.516
2018.000 1.158 0.445
2019.000 1.147 0.359
2020.000 1.172 0.292
2021.000 1.175 0.233
2022.000 1.173 0.179
2023.000 1.150 0.101
2024.000 1.090 0.058
2025.000 1.016 0.101
2026.000 0.961 0.188
2027.000 0.894 0.251
2028.000 0.828 0.222
2029.000 0.825 0.152
2030.000 0.867 0.096
2031.000 0.913 0.048
2032.000 0.983 0.031
2033.000 1.060 0.031
2034.000 1.116 0.036
2035.000 1.163 0.091
2036.000 1.163 0.164
2037.000 1.170 0.227
2038.000 1.151 0.296
2039.000 1.139 0.354
2040.000 1.129 0.414
2041.000 1.112 0.459
2042.000 1.148 0.505
2043.000 1.156 0.585
2044.000 1.156 0.645
2045.000 1.142 0.716
2046.000 1.152 0.794
2047.000 1.152 0.865
2048.000 1.122 0.929
2049.000 1.055 0.956
2050.000 0.988 0.958
2051.000 0.921 0.996
2052.000 0.861 1.029
2053.000 0.815 1.080
2054.000 0.756 1.142
2055.000 0.682 1.113
2056.000 0.651 1.043
2057.000 0.578 1.016
2058.000 0.503 0.995
2059.000 0.431 1.005
2060.000 0.350 1.041
2061.000 0.265 1.048
2062.000 0.187 1.083
2063.000 0.119 1.098
2064.000 0.068 1.028
2065.000 0.062 0.933
2066.000 0.063 0.865
2067.000 0.074 0.775
2068.000 0.080 0.695
2069.000 0.080 0.634
2070.000 0.080 0.547
2071.000 0.066 0.469
2072.000 0.066 0.385
2073.000 0.064 0.282
2074.000 0.076 0.183
2075.000 0.125 0.110
2076.000 0.210 0.085
2077.000 0.261 0.059
2078.000 0.334 0.067
2079.000 0.420 0.076
2080.000 0.496 0.087
2081.000 0.582 0.081
2082.000 0.676 0.110
2083.000 0.771 0.110
2084.000 0.865 0.114
2085.000 0.956 0.136
2086.000 1.003 0.124
2087.000 1.055 0.091
2088.000 1.136 0.108
2089.000 1.163 0.198
2090.000 1.181 0.265
2091.000 1.177 0.348
2092.000 1.162 0.417
2093.000 1.138 0.488
2094.000 1.136 0.580
2095.000 1.122 0.673
2096.000 1.118 0.763
2097.000 1.082 0.829
2098.000 1.039 0.879
2099.000 1.041 0.964
2100.000 1.096 1.035
2101.000 1.090 1.120
2102.000 0.999 1.158
2103.000 0.929 1.161
2104.000 0.859 1.148
2105.000 0.775 1.148
2106.000 0.705 1.121
2107.000 0.684 1.071
2108.000 0.617 1.069
2109.000 0.555 1.067
2110.000 0.488 1.050
2111.000 0.424 1.030
2112.000 0.386 0.998
2113.000 0.364 0.929
2114.000 0.345 0.862
2115.000 0.355 0.789
2116.000 0.387 0.764
2117.000 0.392 0.758
2118.000 0.382 0.763
2119.000 0.412 0.753
2120.000 0.407 0.695
2121.000 0.372 0.641
2122.000 0.322 0.610
2123.000 0.251 0.578
2124.000 0.179 0.545
2125.000 0.112 0.525
2126.000 0.057 0.462
2127.000 0.055 0.376
2128.000 0.079 0.298
2129.000 0.111 0.216
2130.000 0.197 0.186
2131.000 0.263 0.182
2132.000 0.317 0.208
2133.000 0.392 0.180
2134.000 0.453 0.144
2135.000 0.529 0.098
2136.000 0.577 0.030
2137.000 0.649 0.029
2138.000 0.725 0.026
2139.000 0.756 0.011
2140.000 0.819 0.037
2141.000 0.807 0.100
2142.000 0.876 0.120
2143.000 0.951 0.092
2144.000 1.033 0.117
2145.000 1.106 0.089
2146.000 1.159 0.054
2147.000 1.178 0.111
2148.000 1.173 0.178
2149.000 1.186 0.226
2150.000 1.177 0.299
2151.000 1.158 0.369
2152.000 1.114 0.425
2153.000 1.115 0.509
2154.000 1.072 0.567
2155.000 1.084 0.656
2156.000 1.135 0.724
2157.000 1.156 0.792
2158.000 1.153 0.884
2159.000 1.155 0.955
2160.000 1.142 1.022
2161.000 1.153 1.091
2162.000 1.122 1.167
2163.000 1.049 1.173
2164.000 0.994 1.170
2165.000 0.927 1.179
2166.000 0.856 1.171
2167.000 0.790 1.157
2168.000 0.766 1.107
2169.000 0.809 1.050
2170.000 0.804 0.978
2171.000 0.810 0.920
2172.000 0.786 0.907
2173.000 0.757 0.899
2174.000 0.801 0.870
2175.000 0.788 0.821
2176.000 0.731 0.802
2177.000 0.659 0.848
2178.000 0.630 0.923
2179.000 0.589 1.005
2180.000 0.562 1.087
2181.000 0.597 1.151
2182.000 0.682 1.147
2183.000 0.756 1.152
2184.000 0.829 1.151
2185.000 0.864 1.105
2186.000 0.920 1.073
2187.000 0.935 1.030
2188.000 0.920 0.984
2189.000 0.859 0.963
2190.000 0.785 0.965
2191.000 0.727 0.940
2192.000 0.695 0.894
2193.000 0.704 0.831
2194.000 0.714 0.770
2195.000 0.751 0.710
2196.000 0.763 0.628
2197.000 0.778 0.547
2198.000 0.781 0.466
2199.000 0.747 0.409
2200.000 0.709 0.416
2201.000 0.755 0.424
2202.000 0.785 0.363
2203.000 0.783 0.283
2204.000 0.722 0.252
2205.000 0.642 0.219
2206.000 0.618 0.138
2207.000 0.632 0.081
2208.000 0.627 0.033
2209.000 0.551 0.037
2210.000 0.479 0.028
2211.000 0.428 0.006
2212.000 0.378 0.038
2213.000 0.310 0.048
2214.000 0.238 0.058
2215.000 0.235 0.109
2216.000 0.246 0.169
2217.000 0.233 0.225
2218.000 0.258 0.280
2219.000 0.282 0.328
2220.000 0.264 0.404
2221.000 0.242 0.473
2222.000 0.254 0.549
2223.000 0.253 0.630
2224.000 0.203 0.681
2225.000 0.134 0.707
2226.000 0.086 0.746
2227.000 0.067 0.816
2228.000 0.041 0.885
2229.000 0.047 0.951
2230.000 0.043 0.959
2231.000 0.070 0.961
2232.000 0.044 0.954
2233.000 0.040 0.990
2234.000 0.048 1.059
2235.000 0.023 1.116
2236.000 0.074 1.156
2237.000 0.133 1.124
2238.000 0.200 1.159
2239.000 0.262 1.179
2240.000 0.308 1.174
2241.000 0.333 1.132
2242.000 0.383 1.099
2243.000 0.433 1.073
2244.000 0.486 1.063
2245.000 0.538 1.013
2246.000 0.564 0.981
2247.000 0.573 0.945
2248.000 0.513 0.942
2249.000 0.465 0.990
2250.000 0.413 1.048
2251.000 0.337 1.061
2252.000 0.261 1.093
2253.000 0.200 1.138
2254.000 0.122 1.143
2255.000 0.045 1.138
2256.000 0.032 1.074
2257.000 0.034 1.013
2258.000 0.050 0.973
2259.000 0.052 0.919
2260.000 0.047 0.867
2261.000 0.053 0.811
2262.000 0.046 0.738
2263.000 0.010 0.704
2264.000 0.010 0.633
2265.000 0.020 0.561
2266.000 0.010 0.483
2267.000 0.017 0.414
2268.000 0.028 0.346
2269.000 0.031 0.280
2270.000 0.053 0.209
2271.000 0.033 0.142
2272.000 0.016 0.083
2273.000 0.065 0.040
2274.000 0.132 0.024
2275.000 0.191 0.024
2276.000 0.252 0.022
2277.000 0.322 0.016
2278.000 0.364 0.004
2279.000 0.416 0.012
2280.000 0.462 0.044
2281.000 0.453 0.085
2282.000 0.430 0.116
2283.000 0.432 0.119
2284.000 0.419 0.136
2285.000 0.450 0.168
2286.000 0.499 0.158
2287.000 0.556 0.127
2288.000 0.596 0.073
2289.000 0.656 0.040
2290.000 0.730 0.061
2291.000 0.765 0.104
2292.000 0.797 0.153
2293.000 0.868 0.185
2294.000 0.946 0.163
2295.000 1.005 0.121
2296.000 1.067 0.098
2297.000 1.126 0.054
2298.000 1.177 0.089
2299.000 1.172 0.157
2300.000 1.168 0.224
2301.000 1.160 0.300
2302.000 1.140 0.348
2303.000 1.140 0.419
2304.000 1.156 0.500
2305.000 1.155 0.586
2306.000 1.147 0.680
2307.000 1.156 0.775
2308.000 1.173 0.845
2309.000 1.175 0.916
2310.000 1.156 0.995
2311.000 1.114 1.071
2312.000 1.056 1.083
2313.000 1.026 1.090
2314.000 1.048 1.078
2315.000 1.046 1.106
2316.000 1.035 1.077
2317.000 1.005 1.053
2318.000 0.967 1.085
2319.000 0.969 1.146
2320.000 1.025 1.178
2321.000 1.071 1.181
2322.000 1.116 1.176
2323.000 1.153 1.164
2324.000 1.159 1.134
2325.000 1.157 1.104
2326.000 1.141 1.082
2327.000 1.159 1.042
2328.000 1.174 1.001
2329.000 1.149 0.963
2330.000 1.095 1.006
2331.000 1.112 1.069
2332.000 1.124 1.135
2333.000 1.061 1.166
2334.000 1.003 1.151
2335.000 0.946 1.140
2336.000 0.885 1.133
2337.000 0.815 1.129
2338.000 0.730 1.124
2339.000 0.664 1.116
2340.000 0.578 1.096
2341.000 0.488 1.096
2342.000 0.411 1.065
2343.000 0.394 0.999
2344.000 0.390 0.940
2345.000 0.366 0.869
2346.000 0.362 0.781
2347.000 0.399 0.739
2348.000 0.427 0.672
2349.000 0.375 0.615
2350.000 0.301 0.607
2351.000 0.229 0.568
2352.000 0.192 0.496
2353.000 0.150 0.431
2354.000 0.093 0.366
2355.000 0.073 0.276
2356.000 0.090 0.208
2357.000 0.164 0.178
2358.000 0.201 0.212
2359.000 0.256 0.209
2360.000 0.324 0.166
2361.000 0.378 0.156
2362.000 0.442 0.160
2363.000 0.518 0.131
2364.000 0.611 0.119
2365.000 0.700 0.125
2366.000 0.792 0.111
2367.000 0.881 0.095
2368.000 0.956 0.061
2369.000 1.003 0.113
2370.000 0.982 0.140
2371.000 0.948 0.134
2372.000 0.998 0.072
2373.000 1.068 0.079
2374.000 1.137 0.125
2375.000 1.163 0.209
2376.000 1.156 0.290
2377.000 1.144 0.368
2378.000 1.158 0.450
2379.000 1.175 0.519
2380.000 1.153 0.591
2381.000 1.114 0.653
2382.000 1.121 0.714
2383.000 1.139 0.808
2384.000 1.179 0.886
2385.000 1.155 0.982
2386.000 1.133 1.039
2387.000 1.049 1.068
2388.000 0.969 1.046
2389.000 0.933 0.980
2390.000 1.001 0.989
2391.000 1.056 1.052
2392.000 1.120 1.114
2393.000 1.163 1.167
2394.000 1.177 1.117
2395.000 1.175 1.069
2396.000 1.175 1.026
2397.000 1.166 1.001
2398.000 1.155 0.971
2399.000 1.163 0.937
2400.000 1.102 0.914
2401.000 1.029 0.939
2402.000 0.959 0.939
2403.000 0.901 0.931
2404.000 0.838 0.918
2405.000 0.786 0.876
2406.000 0.779 0.819
2407.000 0.766 0.771
2408.000 0.741 0.724
2409.000 0.675 0.703
2410.000 0.578 0.721
2411.000 0.521 0.744
2412.000 0.448 0.761
2413.000 0.396 0.802
2414.000 0.328 0.856
2415.000 0.280 0.920
2416.000 0.232 0.989
2417.000 0.210 1.071
2418.000 0.242 1.142
2419.000 0.317 1.155
2420.000 0.382 1.154
2421.000 0.389 1.136
2422.000 0.386 1.099
2423.000 0.427 1.075
2424.000 0.467 1.116
2425.000 0.519 1.107
2426.000 0.576 1.082
2427.000 0.594 1.051
2428.000 0.617 1.004
2429.000 0.642 0.979
2430.000 0.692 0.974
2431.000 0.744 1.024
2432.000 0.780 1.090
2433.000 0.860 1.122
2434.000 0.947 1.112
2435.000 1.027 1.095
2436.000 1.054 1.076
2437.000 1.033 1.090
2438.000 1.048 1.057
2439.000 1.043 1.086
2440.000 1.031 1.082
2441.000 1.073 1.093
2442.000 1.137 1.113
2443.000 1.165 1.073
2444.000 1.140 1.024
2445.000 1.126 0.982
2446.000 1.130 0.919
2447.000 1.133 0.857
2448.000 1.115 0.792
2449.000 1.078 0.742
2450.000 1.050 0.700
2451.000 1.008 0.662
2452.000 0.947 0.653
2453.000 0.901 0.670
2454.000 0.865 0.686
2455.000 0.805 0.664
2456.000 0.773 0.608
2457.000 0.779 0.541
2458.000 0.774 0.482
2459.000 0.751 0.418
2460.000 0.721 0.363
2461.000 0.656 0.346
2462.000 0.593 0.349
2463.000 0.544 0.363
2464.000 0.506 0.404
2465.000 0.451 0.434
2466.000 0.380 0.402
2467.000 0.315 0.346
2468.000 0.250 0.306
2469.000 0.182 0.277
2470.000 0.148 0.223
2471.000 0.091 0.171
2472.000 0.057 0.093
2473.000 0.088 0.028
2474.000 0.125 0.026
2475.000 0.167 0.031
2476.000 0.219 0.022
2477.000 0.243 0.048
2478.000 0.180 0.062
2479.000 0.110 0.083
2480.000 0.076 0.144
2481.000 0.094 0.213
2482.000 0.145 0.236
2483.000 0.184 0.271
2484.000 0.186 0.336
2485.000 0.192 0.413
2486.000 0.159 0.485
2487.000 0.123 0.456
2488.000 0.069 0.471
2489.000 0.062 0.546
2490.000 0.057 0.618
2491.000 0.072 0.698
2492.000 0.111 0.764
2493.000 0.118 0.775
2494.000 0.126 0.788
2495.000 0.120 0.793
2496.000 0.175 0.755
2497.000 0.235 0.769
2498.000 0.246 0.821
2499.000 0.311 0.820
2500.000 0.381 0.789
2501.000 0.446 0.759
2502.000 0.514 0.738
2503.000 0.558 0.684
2504.000 0.565 0.631
2505.000 0.508 0.592
2506.000 0.484 0.530
2507.000 0.521 0.480
2508.000 0.545 0.411
2509.000 0.578 0.332
2510.000 0.660 0.308
2511.000 0.733 0.376
2512.000 0.801 0.432
2513.000 0.845 0.517
2514.000 0.842 0.600
2515.000 0.848 0.686
2516.000 0.806 0.762
2517.000 0.749 0.816
2518.000 0.664 0.852
2519.000 0.622 0.918
2520.000 0.595 0.994
2521.000 0.543 0.995
2522.000 0.527 0.940
2523.000 0.533 0.921
2524.000 0.524 0.898
2525.000 0.483 0.897
2526.000 0.444 0.930
2527.000 0.392 0.982
2528.000 0.386 1.055
2529.000 0.467 1.097
2530.000 0.557 1.110
2531.000 0.643 1.099
2532.000 0.703 1.074
2533.000 0.751 1.081
2534.000 0.794 1.109
2535.000 0.857 1.085
2536.000 0.910 1.048
2537.000 0.942 1.078
2538.000 1.014 1.050
2539.000 1.061 0.985
2540.000 1.109 0.911
2541.000 1.097 0.824
2542.000 1.069 0.742
2543.000 1.093 0.663
2544.000 1.065 0.583
2545.000 1.052 0.524
2546.000 1.043 0.470
2547.000 1.070 0.381
2548.000 1.087 0.292
2549.000 1.088 0.202
2550.000 1.085 0.142
2551.000 1.027 0.159
2552.000 0.973 0.151
2553.000 0.914 0.091
2554.000 0.855 0.063
2555.000 0.815 0.089
2556.000 0.777 0.107
2557.000 0.748 0.147
2558.000 0.711 0.156
2559.000 0.676 0.179
2560.000 0.633 0.202
2561.000 0.609 0.236
2562.000 0.570 0.236
2563.000 0.538 0.202
2564.000 0.487 0.188
2565.000 0.420 0.136
2566.000 0.381 0.059
2567.000 0.360 0.065
2568.000 0.289 0.097
2569.000 0.216 0.134
2570.000 0.153 0.193
2571.000 0.100 0.273
2572.000 0.112 0.368
2573.000 0.133 0.419
2574.000 0.153 0.439
2575.000 0.149 0.428
2576.000 0.120 0.469
2577.000 0.150 0.512
2578.000 0.203 0.485
2579.000 0.216 0.442
2580.000 0.252 0.420
2581.000 0.309 0.399
2582.000 0.365 0.376
2583.000 0.388 0.335
2584.000 0.366 0.251
2585.000 0.370 0.167
2586.000 0.423 0.096
2587.000 0.470 0.067
2588.000 0.491 0.037
2589.000 0.524 0.014
2590.000 0.598 0.020
2591.000 0.671 0.037
2592.000 0.761 0.046
2593.000 0.846 0.047
2594.000 0.934 0.043
2595.000 1.009 0.103
2596.000 1.084 0.078
2597.000 1.149 0.036
2598.000 1.168 0.054
2599.000 1.102 0.105
2600.000 1.099 0.069
2601.000 1.146 0.045
2602.000 1.184 0.072
2603.000 1.175 0.108
2604.000 1.171 0.146
2605.000 1.177 0.206
2606.000 1.173 0.273
2607.000 1.175 0.344
2608.000 1.169 0.414
2609.000 1.168 0.479
2610.000 1.172 0.556
2611.000 1.164 0.642
2612.000 1.156 0.712
2613.000 1.136 0.756
2614.000 1.164 0.835
2615.000 1.163 0.918
2616.000 1.167 1.000
2617.000 1.149 1.083
2618.000 1.123 1.139
2619.000 1.166 1.143
2620.000 1.151 1.111
2621.000 1.104 1.130
2622.000 1.056 1.169
2623.000 0.980 1.171
2624.000 0.922 1.179
2625.000 0.891 1.181
2626.000 0.860 1.172
2627.000 0.830 1.146
2628.000 0.766 1.193
2629.000 0.698 1.186
2630.000 0.646 1.175
2631.000 0.576 1.171
2632.000 0.510 1.185
2633.000 0.520 1.187
2634.000 0.502 1.158
2635.000 0.448 1.158
2636.000 0.392 1.182
2637.000 0.415 1.188
2638.000 0.454 1.169
2639.000 0.466 1.183
2640.000 0.393 1.177
2641.000 0.322 1.154
2642.000 0.250 1.136
2643.000 0.169 1.139
2644.000 0.125 1.098
2645.000 0.067 1.068
2646.000 0.032 1.034
2647.000 0.023 0.997
2648.000 0.039 0.930
2649.000 0.028 0.838
2650.000 0.022 0.763
2651.000 0.024 0.705
2652.000 0.010 0.634
2653.000 0.025 0.574
2654.000 0.080 0.562
2655.000 0.075 0.493
2656.000 0.040 0.417
2657.000 0.030 0.332
2658.000 0.042 0.248
2659.000 0.017 0.183
2660.000 0.034 0.115
2661.000 0.095 0.061
2662.000 0.188 0.049
2663.000 0.266 0.050
2664.000 0.339 0.013
2665.000 0.412 0.008
2666.000 0.496 0.022
2667.000 0.567 0.042
2668.000 0.635 0.068
2669.000 0.691 0.110
2670.000 0.765 0.094
2671.000 0.847 0.055
2672.000 0.930 0.041
2673.000 1.002 0.087
2674.000 1.075 0.068
2675.000 1.120 0.015
2676.000 1.158 0.035
2677.000 1.173 0.101
2678.000 1.165 0.130
2679.000 1.160 0.098
2680.000 1.110 0.130
2681.000 1.127 0.202
2682.000 1.162 0.262
2683.000 1.151 0.334
2684.000 1.154 0.415
2685.000 1.154 0.494
2686.000 1.158 0.574
2687.000 1.160 0.653
2688.000 1.155 0.741
2689.000 1.157 0.825
2690.000 1.159 0.915
2691.000 1.123 0.999
2692.000 1.083 1.075
2693.000 1.001 1.143
2694.000 0.902 1.140
2695.000 0.799 1.128
2696.000 0.692 1.128
2697.000 0.632 1.083
2698.000 0.571 1.036
2699.000 0.474 1.056
2700.000 0.387 1.064
2701.000 0.361 0.979
2702.000 0.316 0.937
2703.000 0.237 0.930
2704.000 0.164 0.914
2705.000 0.103 0.884
2706.000 0.086 0.850
2707.000 0.065 0.799
2708.000 0.071 0.745
2709.000 0.121 0.722
2710.000 0.144 0.764
2711.000 0.132 0.850
2712.000 0.102 0.928
2713.000 0.059 1.000
2714.000 0.085 1.092
2715.000 0.163 1.139
2716.000 0.258 1.138
2717.000 0.342 1.141
2718.000 0.434 1.120
2719.000 0.510 1.083
2720.000 0.563 1.032
2721.000 0.612 0.989
2722.000 0.690 0.984
2723.000 0.785 0.988
2724.000 0.873 1.024
2725.000 0.959 1.071
2726.000 1.040 1.082
2727.000 1.109 1.091
2728.000 1.157 1.040
2729.000 1.150 0.966
2730.000 1.147 0.897
2731.000 1.133 0.821
2732.000 1.120 0.752
2733.000 1.086 0.689
2734.000 1.057 0.652
2735.000 0.991 0.574
2736.000 0.985 0.495
2737.000 0.984 0.408
2738.000 0.986 0.318
2739.000 1.031 0.224
2740.000 1.064 0.143
2741.000 1.007 0.135
2742.000 0.945 0.131
2743.000 0.866 0.094
2744.000 0.817 0.032
2745.000 0.754 0.023
2746.000 0.688 0.044
2747.000 0.642 0.038
2748.000 0.601 0.029
2749.000 0.542 0.025
2750.000 0.465 0.024
2751.000 0.431 0.052
2752.000 0.370 0.073
2753.000 0.303 0.063
2754.000 0.223 0.065
2755.000 0.146 0.051
2756.000 0.099 0.033
2757.000 0.060 0.042
2758.000 0.045 0.058
2759.000 0.053 0.081
2760.000 0.056 0.086
2761.000 0.056 0.087
2762.000 0.054 0.091
2763.000 0.053 0.104
2764.000 0.057 0.106
2765.000 0.064 0.089
2766.000 0.057 0.048
2767.000 0.038 0.054
2768.000 0.037 0.084
2769.000 0.042 0.097
2770.000 0.043 0.102
2771.000 0.044 0.105
2772.000 0.040 0.108
2773.000 0.038 0.116
2774.000 0.034 0.114
2775.000 0.034 0.111
2776.000 0.035 0.117
2777.000 0.034 0.117
2778.000 0.033 0.117
2779.000 0.032 0.117
2780.000 0.031 0.115
2781.000 0.030 0.117
2782.000 0.027 0.117
2783.000 0.032 0.120
2784.000 0.041 0.102
2785.000 0.033 0.073
2786.000 0.049 0.048
2787.000 0.043 0.041
2788.000 0.037 0.065
2789.000 0.041 0.078
2790.000 0.039 0.077
2791.000 0.039 0.072
2792.000 0.039 0.068
2793.000 0.040 0.060
2794.000 0.044 0.051
2795.000 0.040 0.036
2796.000 0.066 0.031
2797.000 0.072 0.052
2798.000 0.068 0.053
2799.000 0.063 0.053
2800.000 0.055 0.051
2801.000 0.049 0.054
2802.000 0.044 0.067
2803.000 0.046 0.076
2804.000 0.060 0.083
2805.000 0.088 0.072
2806.000 0.099 0.029
2807.000 0.039 0.045
2808.000 0.053 0.126
2809.000 0.039 0.192
2810.000 0.035 0.233
2811.000 0.042 0.277
2812.000 0.042 0.329
2813.000 0.051 0.378
2814.000 0.060 0.421
2815.000 0.055 0.483
2816.000 0.055 0.550
2817.000 0.043 0.604
2818.000 0.041 0.664
2819.000 0.045 0.738
2820.000 0.028 0.792
2821.000 0.027 0.834
2822.000 0.028 0.883
2823.000 0.031 0.942
2824.000 0.026 0.989
2825.000 0.036 1.033
2826.000 0.047 1.092
2827.000 0.054 1.121
2828.000 0.098 1.120
2829.000 0.164 1.125
2830.000 0.203 1.109
2831.000 0.220 1.073
2832.000 0.219 1.049
2833.000 0.200 1.009
2834.000 0.200 0.959
2835.000 0.204 0.930
2836.000 0.172 0.877
2837.000 0.134 0.845
2838.000 0.086 0.821
2839.000 0.071 0.763
2840.000 0.079 0.712
2841.000 0.082 0.657
2842.000 0.081 0.585
2843.000 0.071 0.538
2844.000 0.107 0.497
2845.000 0.157 0.521
2846.000 0.207 0.555
2847.000 0.261 0.560
2848.000 0.327 0.578
2849.000 0.376 0.627
2850.000 0.431 0.660
2851.000 0.470 0.661
2852.000 0.517 0.643
2853.000 0.506 0.579
2854.000 0.435 0.574
2855.000 0.381 0.599
2856.000 0.343 0.646
2857.000 0.321 0.695
2858.000 0.337 0.770
2859.000 0.364 0.818
2860.000 0.426 0.864
2861.000 0.494 0.901
2862.000 0.532 0.955
2863.000 0.559 1.024
2864.000 0.576 1.088
2865.000 0.557 1.151
2866.000 0.512 1.173
2867.000 0.458 1.190
2868.000 0.398 1.178
2869.000 0.369 1.172
2870.000 0.350 1.155
2871.000 0.299 1.112
2872.000 0.233 1.116
2873.000 0.190 1.141
2874.000 0.135 1.151
2875.000 0.152 1.103
2876.000 0.195 1.117
2877.000 0.236 1.125
2878.000 0.251 1.109
2879.000 0.280 1.127
2880.000 0.239 1.166
2881.000 0.175 1.161
2882.000 0.109 1.157
2883.000 0.042 1.140
2884.000 0.027 1.090
2885.000 0.028 1.031
2886.000 0.024 0.967
2887.000 0.022 0.895
2888.000 0.018 0.823
2889.000 0.023 0.755
2890.000 0.022 0.697
2891.000 0.046 0.618
2892.000 0.047 0.554
2893.000 0.019 0.482
2894.000 0.028 0.405
2895.000 0.079 0.383
2896.000 0.146 0.340
2897.000 0.220 0.322
2898.000 0.270 0.308
2899.000 0.341 0.264
2900.000 0.375 0.212
2901.000 0.396 0.164
2902.000 0.356 0.105
2903.000 0.303 0.075
2904.000 0.245 0.042
2905.000 0.181 0.052
2906.000 0.112 0.055
2907.000 0.068 0.052
2908.000 0.052 0.033
2909.000 0.042 0.063
2910.000 0.040 0.078
2911.000 0.039 0.088
2912.000 0.030 0.103
2913.000 0.030 0.118
2914.000 0.026 0.091
2915.000 0.047 0.058
2916.000 0.075 0.045
2917.000 0.098 0.034
2918.000 0.127 0.031
2919.000 0.145 0.039
2920.000 0.170 0.042
2921.000 0.189 0.039
2922.000 0.235 0.026
2923.000 0.264 0.028
2924.000 0.238 0.039
2925.000 0.173 0.056
2926.000 0.133 0.113
2927.000 0.107 0.177
2928.000 0.058 0.229
2929.000 0.025 0.256
2930.000 0.020 0.299
2931.000 0.021 0.316
2932.000 0.020 0.335
2933.000 0.016 0.354
2934.000 0.031 0.383
2935.000 0.040 0.398
2936.000 0.039 0.406
2937.000 0.034 0.414
2938.000 0.034 0.418
2939.000 0.034 0.421
2940.000 0.033 0.421
2941.000 0.030 0.423
2942.000 0.023 0.427
2943.000 0.021 0.409
2944.000 0.029 0.397
2945.000 0.027 0.381
2946.000 0.026 0.372
2947.000 0.031 0.362
2948.000 0.032 0.359
2949.000 0.037 0.361
2950.000 0.040 0.368
2951.000 0.033 0.379
2952.000 0.024 0.387
2953.000 0.024 0.397
2954.000 0.025 0.403
2955.000 0.024 0.402
2956.000 0.019 0.405
2957.000 0.016 0.406
2958.000 0.017 0.391
2959.000 0.031 0.370
2960.000 0.031 0.353
2961.000 0.024 0.341
2962.000 0.019 0.355
2963.000 0.019 0.361
2964.000 0.021 0.365
2965.000 0.022 0.365
2966.000 0.020 0.366
2967.000 0.019 0.365
2968.000 0.024 0.365
2969.000 0.032 0.357
2970.000 0.032 0.348
2971.000 0.031 0.345
2972.000 0.027 0.342
2973.000 0.017 0.350
2974.000 0.023 0.364
2975.000 0.024 0.367
2976.000 0.025 0.372
2977.000 0.022 0.374
2978.000 0.024 0.377
2979.000 0.023 0.376
2980.000 0.030 0.375
2981.000 0.034 0.367
2982.000 0.032 0.358
2983.000 0.028 0.357
2984.000 0.025 0.344
2985.000 0.029 0.329
2986.000 0.037 0.317
2987.000 0.057 0.308
2988.000 0.065 0.329
2989.000 0.063 0.344
2990.000 0.055 0.359
2991.000 0.042 0.372
2992.000 0.034 0.390
2993.000 0.034 0.409
2994.000 0.038 0.430
2995.000 0.042 0.437
2996.000 0.041 0.439
2997.000 0.039 0.442
2998.000 0.036 0.445
2999.000 0.031 0.452
3000.000 0.037 0.463
3001.000 0.042 0.467
3002.000 0.044 0.466
3003.000 0.041 0.462
3004.000 0.038 0.450
3005.000 0.029 0.444
3006.000 0.021 0.459
3007.000 0.026 0.470
3008.000 0.029 0.478
3009.000 0.026 0.482
3010.000 0.023 0.484
3011.000 0.021 0.484
3012.000 0.020 0.485
3013.000 0.018 0.485
3014.000 0.020 0.487
3015.000 0.021 0.489
3016.000 0.023 0.490
3017.000 0.023 0.494
3018.000 0.020 0.496
3019.000 0.017 0.495
3020.000 0.020 0.498
3021.000 0.021 0.498
3022.000 0.022 0.498
3023.000 0.023 0.500
3024.000 0.022 0.503
3025.000 0.021 0.504
3026.000 0.021 0.505
3027.000 0.021 0.505
3028.000 0.021 0.504
3029.000 0.021 0.505
3030.000 0.021 0.505
3031.000 0.021 0.505
3032.000 0.021 0.505
3033.000 0.021 0.505
3034.000 0.021 0.505
3035.000 0.020 0.504
3036.000 0.021 0.504
3037.000 0.020 0.504
3038.000 0.020 0.504
3039.000 0.020 0.504
3040.000 0.020 0.504
3041.000 0.021 0.504
3042.000 0.020 0.504
3043.000 0.020 0.504
3044.000 0.020 0.504
3045.000 0.020 0.504
3046.000 0.020 0.504
3047.000 0.020 0.504
3048.000 0.020 0.504
3049.000 0.020 0.504
3050.000 0.020 0.504
3051.000 0.020 0.504
3052.000 0.020 0.504
3053.000 0.020 0.504
3054.000 0.020 0.504
3055.000 0.020 0.504
3056.000 0.020 0.504
3057.000 0.020 0.504
3058.000 0.019 0.504
3059.000 0.019 0.504
3060.000 0.019 0.504
3061.000 0.019 0.504
3062.000 0.019 0.504
3063.000 0.019 0.504
3064.000 0.019 0.504
3065.000 0.019 0.504
3066.000 0.019 0.504
3067.000 0.019 0.504
3068.000 0.019 0.504
3069.000 0.018 0.504
3070.000 0.019 0.506
3071.000 0.019 0.506
3072.000 0.019 0.506
3073.000 0.019 0.506
3074.000 0.024 0.490
3075.000 0.019 0.506
3076.000 0.021 0.520
3077.000 0.025 0.529
3078.000 0.026 0.533
3079.000 0.025 0.537
3080.000 0.024 0.539
3081.000 0.021 0.541
3082.000 0.022 0.543
3083.000 0.020 0.542
3084.000 0.020 0.542
3085.000 0.021 0.543
3086.000 0.019 0.543
3087.000 0.018 0.543
3088.000 0.018 0.544
3089.000 0.017 0.544
3090.000 0.017 0.544
3091.000 0.017 0.545
3092.000 0.017 0.545
3093.000 0.017 0.545
3094.000 0.017 0.544
3095.000 0.017 0.544
3096.000 0.017 0.545
3097.000 0.017 0.544
3098.000 0.017 0.544
3099.000 0.017 0.544
3100.000 0.016 0.544
3101.000 0.017 0.544
3102.000 0.017 0.544
3103.000 0.017 0.544
3104.000 0.015 0.545
3105.000 0.016 0.551
3106.000 0.019 0.552
3107.000 0.019 0.552
3108.000 0.019 0.552
3109.000 0.017 0.551
3110.000 0.017 0.552
3111.000 0.017 0.552
3112.000 0.017 0.552
3113.000 0.017 0.552
3114.000 0.017 0.552
3115.000 0.017 0.552
3116.000 0.017 0.551
3117.000 0.017 0.552
3118.000 0.017 0.552
3119.000 0.017 0.552
3120.000 0.017 0.552
3121.000 0.017 0.552
3122.000 0.017 0.552
3123.000 0.017 0.552
3124.000 0.017 0.552
3125.000 0.017 0.552
3126.000 0.017 0.552
3127.000 0.017 0.552
3128.000 0.017 0.552
3129.000 0.017 0.552
3130.000 0.017 0.552
3131.000 0.017 0.552
3132.000 0.017 0.552
3133.000 0.017 0.552
3134.000 0.017 0.552
3135.000 0.017 0.552
3136.000 0.017 0.552
3137.000 0.017 0.552
3138.000 0.017 0.552
3139.000 0.017 0.552
3140.000 0.017 0.552
3141.000 0.016 0.554
3142.000 0.016 0.554
3143.000 0.016 0.555
3144.000 0.016 0.555
3145.000 0.016 0.556
3146.000 0.016 0.555
3147.000 0.016 0.555
3148.000 0.016 0.555
3149.000 0.016 0.555
3150.000 0.016 0.556
3151.000 0.016 0.555
3152.000 0.017 0.556
3153.000 0.016 0.555
3154.000 0.017 0.555
3155.000 0.016 0.555
3156.000 0.016 0.555
3157.000 0.017 0.555
3158.000 0.017 0.555
3159.000 0.016 0.555
3160.000 0.016 0.555
3161.000 0.016 0.555
3162.000 0.016 0.555
3163.000 0.016 0.555
3164.000 0.016 0.555
3165.000 0.016 0.555
3166.000 0.016 0.556
3167.000 0.015 0.557
3168.000 0.017 0.561
3169.000 0.022 0.565
3170.000 0.023 0.568
3171.000 0.021 0.571
3172.000 0.021 0.573
3173.000 0.019 0.574
3174.000 0.018 0.573
3175.000 0.018 0.575
3176.000 0.017 0.577
3177.000 0.017 0.577
3178.000 0.017 0.580
3179.000 0.013 0.587
3180.000 0.012 0.592
3181.000 0.019 0.609
3182.000 0.022 0.613
3183.000 0.022 0.613
3184.000 0.024 0.614
3185.000 0.025 0.617
3186.000 0.024 0.628
3187.000 0.027 0.638
3188.000 0.039 0.642
3189.000 0.043 0.644
3190.000 0.044 0.652
3191.000 0.036 0.667
3192.000 0.032 0.709
3193.000 0.020 0.712
3194.000 0.029 0.681
3195.000 0.030 0.653
3196.000 0.043 0.631
3197.000 0.045 0.608
3198.000 0.018 0.591
3199.000 0.017 0.631
3200.000 0.016 0.661
3201.000 0.025 0.708
3202.000 0.030 0.763
3203.000 0.040 0.842
3204.000 0.051 0.919
3205.000 0.051 1.002
3206.000 0.053 1.089
3207.000 0.077 1.154
3208.000 0.153 1.157
3209.000 0.219 1.157
3210.000 0.268 1.145
3211.000 0.347 1.162
3212.000 0.428 1.155
3213.000 0.506 1.160
3214.000 0.579 1.166
3215.000 0.645 1.163
3216.000 0.629 1.179
3217.000 0.637 1.151
3218.000 0.703 1.151
3219.000 0.782 1.164
3220.000 0.864 1.160
3221.000 0.951 1.162
3222.000 1.043 1.165
3223.000 1.113 1.156
3224.000 1.158 1.170
3225.000 1.173 1.125
3226.000 1.161 1.090
3227.000 1.162 1.062
3228.000 1.158 1.021
3229.000 1.166 0.958
3230.000 1.175 0.868
3231.000 1.177 0.789
3232.000 1.172 0.697
3233.000 1.175 0.620
3234.000 1.180 0.557
3235.000 1.187 0.587
3236.000 1.166 0.599
3237.000 1.149 0.595
3238.000 1.141 0.532
3239.000 1.174 0.479
3240.000 1.190 0.405
3241.000 1.193 0.327
3242.000 1.193 0.246
3243.000 1.178 0.171
3244.000 1.185 0.108
3245.000 1.144 0.036
3246.000 1.046 0.034
3247.000 0.955 0.020
3248.000 0.871 0.018
3249.000 0.782 0.013
3250.000 0.698 0.015
3251.000 0.595 0.019
3252.000 0.534 0.006
3253.000 0.467 0.036
3254.000 0.374 0.032
3255.000 0.270 0.027
3256.000 0.167 0.027
3257.000 0.085 0.033
3258.000 0.029 0.065
3259.000 0.028 0.158
3260.000 0.011 0.249
3261.000 0.015 0.332
3262.000 0.009 0.403
3263.000 0.018 0.474
3264.000 0.029 0.534
3265.000 0.036 0.604
3266.000 0.026 0.695
3267.000 0.028 0.764
3268.000 0.036 0.851
3269.000 0.034 0.936
3270.000 0.028 1.023
3271.000 0.034 1.080
3272.000 0.059 1.111
3273.000 0.034 1.140
3274.000 0.040 1.140
3275.000 0.042 1.107
3276.000 0.055 1.081
3277.000 0.049 1.128
3278.000 0.040 1.162
3279.000 0.076 1.139
3280.000 0.116 1.142
3281.000 0.081 1.126
3282.000 0.044 1.145
3283.000 0.034 1.148
3284.000 0.037 1.110
3285.000 0.047 1.077
3286.000 0.054 1.135
3287.000 0.033 1.153
3288.000 0.034 1.140
3289.000 0.048 1.104
3290.000 0.102 1.142
3291.000 0.153 1.174
3292.000 0.221 1.182
3293.000 0.290 1.181
3294.000 0.371 1.182
3295.000 0.458 1.188
3296.000 0.546 1.186
3297.000 0.625 1.162
3298.000 0.715 1.179
3299.000 0.816 1.185
3300.000 0.913 1.191
3301.000 0.960 1.174
3302.000 1.052 1.182
3303.000 1.138 1.176
3304.000 1.165 1.175
3305.000 1.174 1.137
3306.000 1.157 1.110
3307.000 1.162 1.054
3308.000 1.175 0.981
3309.000 1.178 0.901
3310.000 1.177 0.832
3311.000 1.178 0.756
3312.000 1.176 0.675
3313.000 1.169 0.587
3314.000 1.173 0.499
3315.000 1.167 0.424
3316.000 1.159 0.320
3317.000 1.183 0.228
3318.000 1.174 0.151
3319.000 1.185 0.070
3320.000 1.121 0.021
3321.000 1.042 0.020
3322.000 1.002 0.070
3323.000 0.971 0.115
3324.000 0.886 0.084
3325.000 0.813 0.020
3326.000 0.755 0.055
3327.000 0.711 0.107
3328.000 0.616 0.102
3329.000 0.520 0.116
3330.000 0.425 0.130
3331.000 0.329 0.124
3332.000 0.293 0.051
3333.000 0.238 0.028
3334.000 0.149 0.051
3335.000 0.076 0.121
3336.000 0.077 0.215
3337.000 0.087 0.300
3338.000 0.096 0.401
3339.000 0.090 0.492
3340.000 0.054 0.572
3341.000 0.016 0.611
3342.000 0.025 0.695
3343.000 0.041 0.787
3344.000 0.044 0.880
3345.000 0.026 0.966
3346.000 0.033 1.027
3347.000 0.045 1.091
3348.000 0.040 1.161
3349.000 0.114 1.161
3350.000 0.185 1.165
3351.000 0.239 1.166
3352.000 0.307 1.166
3353.000 0.382 1.174
3354.000 0.442 1.179
3355.000 0.493 1.172
3356.000 0.526 1.180
3357.000 0.594 1.177
3358.000 0.648 1.180
3359.000 0.704 1.170
3360.000 0.763 1.148
3361.000 0.845 1.159
3362.000 0.925 1.159
3363.000 1.007 1.168
3364.000 1.082 1.163
3365.000 1.156 1.158
3366.000 1.158 1.084
3367.000 1.163 1.019
3368.000 1.144 0.939
3369.000 1.157 0.856
3370.000 1.159 0.767
3371.000 1.160 0.671
3372.000 1.142 0.578
3373.000 1.157 0.486
3374.000 1.168 0.389
3375.000 1.175 0.298
3376.000 1.176 0.203
3377.000 1.171 0.096
3378.000 1.150 0.027
3379.000 1.070 0.036
3380.000 1.007 0.065
3381.000 0.927 0.048
3382.000 0.834 0.040
3383.000 0.748 0.044
3384.000 0.669 0.024
3385.000 0.581 0.024
3386.000 0.521 0.023
3387.000 0.442 0.036
3388.000 0.417 0.061
3389.000 0.344 0.064
3390.000 0.267 0.052
3391.000 0.190 0.031
3392.000 0.110 0.029
3393.000 0.064 0.031
3394.000 0.034 0.095
3395.000 0.035 0.172
3396.000 0.048 0.238
3397.000 0.058 0.278
3398.000 0.047 0.357
3399.000 0.043 0.450
3400.000 0.055 0.537
3401.000 0.041 0.621
3402.000 0.030 0.708
3403.000 0.029 0.798
3404.000 0.033 0.881
3405.000 0.048 0.970
3406.000 0.042 1.062
3407.000 0.054 1.128
3408.000 0.045 1.155
3409.000 0.108 1.154
3410.000 0.154 1.144
3411.000 0.178 1.163
3412.000 0.229 1.155
3413.000 0.246 1.149
3414.000 0.297 1.139
3415.000 0.352 1.147
3416.000 0.406 1.156
3417.000 0.478 1.168
3418.000 0.551 1.166
3419.000 0.637 1.172
3420.000 0.723 1.164
3421.000 0.787 1.165
3422.000 0.859 1.156
3423.000 0.894 1.159
3424.000 0.875 1.142
3425.000 0.836 1.172
3426.000 0.757 1.166
3427.000 0.704 1.155
3428.000 0.635 1.165
3429.000 0.587 1.179
3430.000 0.513 1.168
3431.000 0.437 1.169
3432.000 0.370 1.168
3433.000 0.287 1.162
3434.000 0.206 1.160
3435.000 0.126 1.153
3436.000 0.050 1.149
3437.000 0.034 1.097
3438.000 0.042 1.054
3439.000 0.035 1.009
3440.000 0.030 0.960
3441.000 0.030 0.898
3442.000 0.033 0.841
3443.000 0.045 0.792
3444.000 0.032 0.736
3445.000 0.019 0.673
3446.000 0.051 0.581
3447.000 0.014 0.516
3448.000 0.019 0.447
3449.000 0.030 0.369
3450.000 0.024 0.284
3451.000 0.029 0.206
3452.000 0.040 0.133
3453.000 0.039 0.063
3454.000 0.086 0.030
3455.000 0.131 0.033
3456.000 0.174 0.034
3457.000 0.204 0.041
3458.000 0.260 0.042
3459.000 0.321 0.025
3460.000 0.386 0.030
3461.000 0.434 0.047
3462.000 0.493 0.061
3463.000 0.563 0.037
3464.000 0.649 0.025
3465.000 0.733 0.036
3466.000 0.803 0.042
3467.000 0.885 0.042
3468.000 0.974 0.045
3469.000 1.069 0.041
3470.000 1.157 0.058
3471.000 1.187 0.111
3472.000 1.189 0.176
3473.000 1.187 0.232
3474.000 1.179 0.305
3475.000 1.173 0.370
3476.000 1.134 0.423
3477.000 1.167 0.503
3478.000 1.197 0.579
3479.000 1.180 0.662
3480.000 1.167 0.744
3481.000 1.164 0.827
3482.000 1.161 0.917
3483.000 1.167 1.008
3484.000 1.163 1.053
3485.000 1.155 1.132
3486.000 1.107 1.179
3487.000 1.048 1.177
3488.000 0.977 1.177
3489.000 0.912 1.187
3490.000 0.849 1.173
3491.000 0.770 1.166
3492.000 0.690 1.165
3493.000 0.609 1.186
3494.000 0.529 1.174
3495.000 0.444 1.164
3496.000 0.378 1.117
3497.000 0.348 1.030
3498.000 0.352 0.975
3499.000 0.338 0.914
3500.000 0.286 0.874
3501.000 0.223 0.845
3502.000 0.181 0.799
3503.000 0.152 0.721
3504.000 0.091 0.663
3505.000 0.042 0.593
3506.000 0.014 0.560
3507.000 0.025 0.501
3508.000 0.042 0.428
3509.000 0.079 0.383
3510.000 0.075 0.330
3511.000 0.062 0.282
3512.000 0.048 0.245
3513.000 0.040 0.178
3514.000 0.040 0.120
3515.000 0.045 0.067
3516.000 0.082 0.029
3517.000 0.151 0.036
3518.000 0.214 0.040
3519.000 0.269 0.033
3520.000 0.335 0.044
3521.000 0.394 0.042
3522.000 0.447 0.041
3523.000 0.508 0.065
3524.000 0.582 0.060
3525.000 0.652 0.058
3526.000 0.730 0.067
3527.000 0.784 0.024
3528.000 0.846 0.025
3529.000 0.894 0.039
3530.000 0.930 0.028
3531.000 0.980 0.034
3532.000 1.049 0.040
3533.000 1.104 0.037
3534.000 1.153 0.046
3535.000 1.178 0.067
3536.000 1.172 0.113
3537.000 1.155 0.159
3538.000 1.174 0.219
3539.000 1.168 0.291
3540.000 1.169 0.348
3541.000 1.163 0.425
3542.000 1.164 0.491
3543.000 1.170 0.580
3544.000 1.183 0.671
3545.000 1.169 0.754
3546.000 1.154 0.831
3547.000 1.159 0.911
3548.000 1.178 0.991
3549.000 1.155 1.071
3550.000 1.153 1.137
3551.000 1.121 1.178
3552.000 1.056 1.178
3553.000 0.983 1.159
3554.000 0.903 1.149
3555.000 0.846 1.126
3556.000 0.783 1.081
3557.000 0.735 1.058
3558.000 0.652 1.078
3559.000 0.558 1.109
3560.000 0.467 1.133
3561.000 0.384 1.141
3562.000 0.291 1.134
3563.000 0.211 1.156
3564.000 0.125 1.152
3565.000 0.044 1.145
3566.000 0.019 1.090
3567.000 0.028 1.023
3568.000 0.033 0.960
3569.000 0.037 0.914
3570.000 0.015 0.868
3571.000 0.034 0.793
3572.000 0.041 0.710
3573.000 0.054 0.632
3574.000 0.072 0.555
3575.000 0.073 0.464
3576.000 0.143 0.393
3577.000 0.287 0.333
3578.000 0.416 0.294
3579.000 0.514 0.236
3580.000 0.616 0.219
3581.000 0.675 0.168
3582.000 0.739 0.111
3583.000 0.833 0.085
3584.000 0.919 0.069
3585.000 1.002 0.082
3586.000 1.080 0.093
3587.000 1.157 0.072
3588.000 1.175 0.143
3589.000 1.164 0.214
3590.000 1.159 0.291
3591.000 1.134 0.373
3592.000 1.120 0.455
3593.000 1.106 0.545
3594.000 1.102 0.632
3595.000 1.137 0.705
3596.000 1.186 0.757
3597.000 1.160 0.849
3598.000 1.136 0.929
3599.000 1.151 1.009
3600.000 1.174 1.065
